INF01058/LAB06/counter/simulation/qsim/counter.msim.vcd
$comment
	File created using the following command:
		vcd file counter.msim.vcd -direction
$end
$date
	Thu Dec 21 00:49:07 2023
$end
$version
	ModelSim Version 10.1d
$end
$timescale
	1ps
$end
$scope module counter_vlg_vec_tst $end
$var reg 8 ! a [7:0] $end
$var reg 1 " clk $end
$var reg 1 # div_sw $end
$var reg 2 $ op_sel [1:0] $end
$var reg 1 % rst $end
$var wire 1 & A_0 $end
$var wire 1 ' A_1 $end
$var wire 1 ( B_0 $end
$var wire 1 ) B_1 $end
$var wire 1 * C_0 $end
$var wire 1 + C_1 $end
$var wire 1 , D_0 $end
$var wire 1 - D_1 $end
$var wire 1 . E_0 $end
$var wire 1 / E_1 $end
$var wire 1 0 F_0 $end
$var wire 1 1 F_1 $end
$var wire 1 2 G_0 $end
$var wire 1 3 G_1 $end
$var wire 1 4 S [7] $end
$var wire 1 5 S [6] $end
$var wire 1 6 S [5] $end
$var wire 1 7 S [4] $end
$var wire 1 8 S [3] $end
$var wire 1 9 S [2] $end
$var wire 1 : S [1] $end
$var wire 1 ; S [0] $end
$scope module i1 $end
$var wire 1 < gnd $end
$var wire 1 = vcc $end
$var wire 1 > unknown $end
$var tri1 1 ? devclrn $end
$var tri1 1 @ devpor $end
$var tri1 1 A devoe $end
$var wire 1 B A_0~output_o $end
$var wire 1 C S[7]~output_o $end
$var wire 1 D S[6]~output_o $end
$var wire 1 E S[5]~output_o $end
$var wire 1 F S[4]~output_o $end
$var wire 1 G S[3]~output_o $end
$var wire 1 H S[2]~output_o $end
$var wire 1 I S[1]~output_o $end
$var wire 1 J S[0]~output_o $end
$var wire 1 K B_0~output_o $end
$var wire 1 L C_0~output_o $end
$var wire 1 M D_0~output_o $end
$var wire 1 N E_0~output_o $end
$var wire 1 O F_0~output_o $end
$var wire 1 P G_0~output_o $end
$var wire 1 Q A_1~output_o $end
$var wire 1 R B_1~output_o $end
$var wire 1 S C_1~output_o $end
$var wire 1 T D_1~output_o $end
$var wire 1 U E_1~output_o $end
$var wire 1 V F_1~output_o $end
$var wire 1 W G_1~output_o $end
$var wire 1 X div_sw~input_o $end
$var wire 1 Y clk~input_o $end
$var wire 1 Z inst14|inst~0_combout $end
$var wire 1 [ inst14|inst~feeder_combout $end
$var wire 1 \ rst~input_o $end
$var wire 1 ] rst~inputclkctrl_outclk $end
$var wire 1 ^ inst14|inst~q $end
$var wire 1 _ inst14|inst28~0_combout $end
$var wire 1 ` inst14|inst28~q $end
$var wire 1 a inst14|inst29~0_combout $end
$var wire 1 b inst14|inst29~q $end
$var wire 1 c inst14|inst30~0_combout $end
$var wire 1 d inst14|inst30~feeder_combout $end
$var wire 1 e inst14|inst30~q $end
$var wire 1 f inst14|inst31~0_combout $end
$var wire 1 g inst14|inst31~q $end
$var wire 1 h inst14|inst32~0_combout $end
$var wire 1 i inst14|inst32~q $end
$var wire 1 j inst14|inst33~0_combout $end
$var wire 1 k inst14|inst33~feeder_combout $end
$var wire 1 l inst14|inst33~q $end
$var wire 1 m inst14|inst34~0_combout $end
$var wire 1 n inst14|inst34~feeder_combout $end
$var wire 1 o inst14|inst34~q $end
$var wire 1 p inst14|inst35~0_combout $end
$var wire 1 q inst14|inst35~q $end
$var wire 1 r inst14|inst36~0_combout $end
$var wire 1 s inst14|inst36~feeder_combout $end
$var wire 1 t inst14|inst36~q $end
$var wire 1 u inst14|inst37~0_combout $end
$var wire 1 v inst14|inst37~q $end
$var wire 1 w inst14|inst38~0_combout $end
$var wire 1 x inst14|inst38~feeder_combout $end
$var wire 1 y inst14|inst38~q $end
$var wire 1 z inst14|inst39~0_combout $end
$var wire 1 { inst14|inst39~q $end
$var wire 1 | inst14|inst40~0_combout $end
$var wire 1 } inst14|inst40~feeder_combout $end
$var wire 1 ~ inst14|inst40~q $end
$var wire 1 !! inst14|inst41~0_combout $end
$var wire 1 "! inst14|inst41~feeder_combout $end
$var wire 1 #! inst14|inst41~q $end
$var wire 1 $! inst14|inst42~0_combout $end
$var wire 1 %! inst14|inst42~feeder_combout $end
$var wire 1 &! inst14|inst42~q $end
$var wire 1 '! inst14|inst43~0_combout $end
$var wire 1 (! inst14|inst43~q $end
$var wire 1 )! inst14|inst44~0_combout $end
$var wire 1 *! inst14|inst44~feeder_combout $end
$var wire 1 +! inst14|inst44~q $end
$var wire 1 ,! inst14|inst45~0_combout $end
$var wire 1 -! inst14|inst45~q $end
$var wire 1 .! inst14|inst46~0_combout $end
$var wire 1 /! inst14|inst46~feeder_combout $end
$var wire 1 0! inst14|inst46~q $end
$var wire 1 1! inst14|inst47~0_combout $end
$var wire 1 2! inst14|inst47~q $end
$var wire 1 3! inst14|inst48~0_combout $end
$var wire 1 4! inst14|inst48~feeder_combout $end
$var wire 1 5! inst14|inst48~q $end
$var wire 1 6! inst14|inst49~0_combout $end
$var wire 1 7! inst14|inst49~q $end
$var wire 1 8! inst14|inst50~0_combout $end
$var wire 1 9! inst14|inst50~feeder_combout $end
$var wire 1 :! inst14|inst50~q $end
$var wire 1 ;! inst14|inst53~0_combout $end
$var wire 1 <! inst14|inst53~q $end
$var wire 1 =! inst14|inst57~0_combout $end
$var wire 1 >! inst14|inst57~q $end
$var wire 1 ?! inst51|inst3~combout $end
$var wire 1 @! inst51|inst3~clkctrl_outclk $end
$var wire 1 A! op_sel[1]~input_o $end
$var wire 1 B! a[1]~input_o $end
$var wire 1 C! op_sel[0]~input_o $end
$var wire 1 D! a[0]~input_o $end
$var wire 1 E! inst8|inst2|inst3~0_combout $end
$var wire 1 F! inst3~0_combout $end
$var wire 1 G! inst~q $end
$var wire 1 H! inst9|inst2|inst3~0_combout $end
$var wire 1 I! inst9|inst2|inst3~1_combout $end
$var wire 1 J! inst2~q $end
$var wire 1 K! a[3]~input_o $end
$var wire 1 L! a[2]~input_o $end
$var wire 1 M! inst10|inst2|inst3~0_combout $end
$var wire 1 N! inst10|inst2|inst3~1_combout $end
$var wire 1 O! inst3~q $end
$var wire 1 P! inst11|inst2|inst3~0_combout $end
$var wire 1 Q! inst11|inst2|inst3~1_combout $end
$var wire 1 R! inst4~q $end
$var wire 1 S! inst6|inst8|inst10~0_combout $end
$var wire 1 T! a[7]~input_o $end
$var wire 1 U! a[6]~input_o $end
$var wire 1 V! a[4]~input_o $end
$var wire 1 W! inst15|inst2|inst3~0_combout $end
$var wire 1 X! inst39~0_combout $end
$var wire 1 Y! inst32~0_combout $end
$var wire 1 Z! inst15|inst2|inst3~1_combout $end
$var wire 1 [! inst15|inst2|inst3~2_combout $end
$var wire 1 \! inst15|inst2|inst3~3_combout $end
$var wire 1 ]! inst5~q $end
$var wire 1 ^! inst45|inst2|inst3~4_combout $end
$var wire 1 _! a[5]~input_o $end
$var wire 1 `! inst27|inst2|inst3~0_combout $end
$var wire 1 a! inst27|inst2|inst3~1_combout $end
$var wire 1 b! inst27|inst2|inst3~2_combout $end
$var wire 1 c! inst26~q $end
$var wire 1 d! inst45|inst2|inst3~3_combout $end
$var wire 1 e! inst35|inst2|inst3~0_combout $end
$var wire 1 f! inst35|inst2|inst3~1_combout $end
$var wire 1 g! inst35|inst2|inst3~2_combout $end
$var wire 1 h! inst35|inst2|inst3~3_combout $end
$var wire 1 i! inst34~q $end
$var wire 1 j! inst45|inst2|inst3~5_combout $end
$var wire 1 k! inst45|inst2|inst3~0_combout $end
$var wire 1 l! inst45|inst2|inst3~1_combout $end
$var wire 1 m! inst45|inst2|inst3~2_combout $end
$var wire 1 n! inst45|inst2|inst3~6_combout $end
$var wire 1 o! inst44~q $end
$var wire 1 p! inst6|inst4|inst6~0_combout $end
$var wire 1 q! inst6|inst|inst8~0_combout $end
$var wire 1 r! inst6|inst1|inst1~0_combout $end
$var wire 1 s! inst6|inst6|inst4~0_combout $end
$var wire 1 t! inst6|inst2|inst14~0_combout $end
$var wire 1 u! inst6|inst9|inst4~combout $end
$var wire 1 v! inst52|inst8|inst10~0_combout $end
$var wire 1 w! inst52|inst4|inst6~0_combout $end
$var wire 1 x! inst52|inst|inst8~0_combout $end
$var wire 1 y! inst52|inst1|inst1~0_combout $end
$var wire 1 z! inst52|inst6|inst4~0_combout $end
$var wire 1 {! inst52|inst2|inst14~0_combout $end
$var wire 1 |! inst52|inst9|inst4~combout $end
$upscope $end
$upscope $end
$enddefinitions $end
#0
$dumpvars
b100 !
0"
0#
b0 $
0%
xP!
xQ!
0R!
xS!
0T!
0U!
0V!
xW!
xX!
xY!
xZ!
x[!
x\!
0]!
x^!
0_!
x`!
xa!
xb!
0c!
xd!
xe!
xf!
xg!
xh!
0i!
xj!
xk!
xl!
xm!
xn!
0o!
xp!
xq!
xr!
xs!
xt!
xu!
xv!
xw!
xx!
xy!
xz!
x{!
x|!
x&
x'
x(
x)
x*
x+
x,
x-
x.
x/
x0
x1
x2
x3
x;
x:
x9
x8
x7
x6
x5
x4
0<
1=
x>
1?
1@
1A
xB
xC
xD
xE
xF
xG
xH
xI
xJ
xK
xL
xM
xN
xO
xP
xQ
xR
xS
xT
xU
xV
xW
0X
0Y
xZ
x[
0\
x]
0^
x_
0`
xa
0b
xc
xd
0e
xf
0g
xh
0i
xj
xk
0l
xm
xn
0o
xp
0q
xr
xs
0t
xu
0v
xw
xx
0y
xz
0{
x|
x}
0~
x!!
x"!
0#!
x$!
x%!
0&!
x'!
0(!
x)!
x*!
0+!
x,!
0-!
x.!
x/!
00!
x1!
02!
x3!
x4!
05!
x6!
07!
x8!
x9!
0:!
x;!
0<!
1=!
0>!
x?!
x@!
0A!
0B!
0C!
0D!
xE!
xF!
0G!
xH!
xI!
0J!
0K!
1L!
xM!
xN!
0O!
$end
#145
0]
#440
0X!
#553
1!!
#554
1f
1u
#558
1,!
1;!
#641
0w!
#682
1_
#714
1|
#715
1c
1r
18!
#716
1.!
#717
1m
1)!
#721
1h
#725
1j
#727
11!
#728
1z
1a
1p
1'!
16!
#742
0d!
#766
1$!
#771
1w
#776
0m!
#795
1z!
0y!
#799
0v!
#820
0W!
#903
1Y!
#905
13!
#1018
0?!
#1109
1"!
#1245
1e!
#1270
19!
1s
1d
1}
#1273
1*!
1/!
#1274
1n
#1281
1k
#1384
0x!
#1385
0{!
#1386
1Z
#1389
1l!
#1393
1|!
#1411
1%!
#1498
1x
#1504
0S!
0r!
#1505
1s!
#1511
0p!
#1637
0q!
#1639
0t!
#1641
0H!
#1642
14!
#1645
1u!
#1740
0@!
#1742
1F!
#1839
0^!
#1871
1M!
1P!
#1875
0f!
#1880
0k!
#1912
0Z!
#1916
0`!
#2230
0[!
#2311
0j!
#2356
0g!
#2377
0a!
#2551
0Q!
#2580
0D
05
#2588
0E
06
#2599
0J
0;
#2635
1[
#2783
0C
04
#2832
0I
0:
#2838
0G
08
#2839
0F
07
#3114
0R
0)
#3273
0T
0-
#3313
0U
0/
#3468
0\!
#3479
0h!
#3495
0E!
#3498
0Q
0'
#3501
0I!
#3540
0b!
#3599
0n!
#3677
1N!
#3754
0H
09
#4068
0V
01
#4130
1W
13
#4258
0B
0&
#4265
0M
0,
#4291
0N
0.
#4377
0L
0*
#4430
1P
12
#4435
0K
0(
#4610
0O
00
#5249
0S
0+
#10000
1%
#10755
1\
#10918
1]
#15630
1"
#16329
1Y
#17361
1?!
#18087
1@!
#18192
1^
#19522
0Z
#19569
1`
#19770
1O!
#20189
0_
#20262
0Y!
#20276
0M!
#20568
1b
#20627
0e!
#20756
0l!
#20782
0[
#21211
1S!
1r!
#21212
0a
#21213
0s!
#21219
0u!
#21681
1e
#22311
0c
#22668
1g
#22920
0d
#23146
0f
#23573
1H
19
#23934
1N
1.
#23937
0P
02
#23991
1i
#24029
1B
1&
#24039
1M
1,
#24637
0h
#24991
1l
#25633
0j
#26134
1o
#26245
0k
#26764
0m
#27122
1q
#27378
0n
#27766
0p
#28235
1t
#28865
0r
#29222
1v
#29474
0s
#29699
0u
#30628
1y
#31260
0"
#31340
0w
#31628
1{
#32118
0x
#32122
0Y
#32273
0z
#32767
1~
#33140
0?!
#33397
0|
#33754
1#!
#33862
0@!
#34011
0}
#34244
0!!
#34854
0"!
#35177
1&!
#35881
0$!
#36177
1(!
#36532
0%!
#36821
0'!
#37290
1+!
#37920
0)!
#38277
1-!
#38532
0*!
#38758
0,!
#39412
10!
#40042
0.!
#40399
12!
#40656
0/!
#41043
01!
#41838
15!
#42667
03!
#42838
17!
#43456
04!
#43482
06!
#43951
1:!
#44581
08!
#44938
1<!
#45190
09!
#45419
0;!
#46873
1>!
#46890
1"
#47242
0=!
#47589
1Y
#48621
1?!
#49347
1@!
#49452
0^
#50838
1Z
#52087
1[
#62520
0"
#63382
0Y
#64400
0?!
#65122
0@!
#78150
1"
#78849
1Y
#79881
1?!
#80607
1@!
#80712
1^
#82042
0Z
#82089
0`
#82771
1_
#83302
0[
#93780
0"
#94642
0Y
#95660
0?!
#96382
0@!
#109410
1"
#110109
1Y
#111141
1?!
#111867
1@!
#111972
0^
#113358
1Z
#114607
1[
#125000
b0 !
b1 !
#125040
0"
#125689
1D!
#125852
0L!
#125902
0Y
#126920
0?!
#127642
0@!
#128776
1E!
#129497
0N!
#140670
1"
#141369
1Y
#142401
1?!
#143127
1@!
#143232
1^
#144562
0Z
#144609
1`
#144810
1G!
0O!
#145229
0_
#145387
1M!
#145399
0r!
#145401
0S!
#145415
1p!
#145608
0b
#145822
0[
#146315
1S!
1r!
1t!
#146321
0p!
#146323
1u!
#146336
1a
#147425
1J
1;
#148564
0H
09
#149108
1P
12
#149358
1O
10
#156300
0"
#157162
0Y
#158180
0?!
#158902
0@!
#171930
1"
#172629
1Y
#173661
1?!
#174387
1@!
#174492
0^
#175878
1Z
#177127
1[
#187560
0"
#188422
0Y
#189440
0?!
#190162
0@!
#203190
1"
#203889
1Y
#204921
1?!
#205647
1@!
#205752
1^
#207082
0Z
#207129
0`
#207811
1_
#208342
0[
#218820
0"
#219682
0Y
#220700
0?!
#221422
0@!
#234450
1"
#235149
1Y
#236181
1?!
#236907
1@!
#237012
0^
#238398
1Z
#239647
1[
#250000
b11 !
b1 $
b10 !
#250080
0"
#250689
1C!
#250699
1B!
#250852
0D!
#250942
0Y
#251960
0?!
#252496
0F!
#252640
1k!
#252682
0@!
#253949
1I!
#254225
0E!
#265710
1"
#266409
1Y
#267441
1?!
#268167
1@!
#268272
1^
#269602
0Z
#269649
1`
#270269
0_
#270648
1b
#270862
0[
#271292
0a
#271761
0e
#272476
1c
#273031
1d
#281340
0"
#282202
0Y
#283220
0?!
#283942
0@!
#296970
1"
#297669
1Y
#298701
1?!
#299427
1@!
#299532
0^
#300918
1Z
#302167
1[
#312600
0"
#313462
0Y
#314480
0?!
#315202
0@!
#328230
1"
#328929
1Y
#329961
1?!
#330687
1@!
#330792
1^
#332122
0Z
#332169
0`
#332851
1_
#333382
0[
#343860
0"
#344722
0Y
#345740
0?!
#346462
0@!
#359490
1"
#360189
1Y
#361221
1?!
#361947
1@!
#362052
0^
#363438
1Z
#364687
1[
#375000
b11 !
#375120
0"
#375689
1D!
#375982
0Y
#377000
0?!
#377722
0@!
#378776
1E!
#390750
1"
#391449
1Y
#392481
1?!
#393207
1@!
#393312
1^
#394642
0Z
#394689
1`
#395309
0_
#395688
0b
#395902
0[
#396416
1a
#406380
0"
#407242
0Y
#408260
0?!
#408982
0@!
#422010
1"
#422709
1Y
#423741
1?!
#424467
1@!
#424572
0^
#425958
1Z
#427207
1[
#437640
0"
#438502
0Y
#439520
0?!
#440242
0@!
#453270
1"
#453969
1Y
#455001
1?!
#455727
1@!
#455832
1^
#457162
0Z
#457209
0`
#457891
1_
#458422
0[
#468900
0"
#469762
0Y
#470780
0?!
#471502
0@!
#484530
1"
#485229
1Y
#486261
1?!
#486987
1@!
#487092
0^
#488478
1Z
#489727
1[
#500000
b11 $
b111 !
b101 !
b10 $
b100 !
#500160
0"
#500689
1L!
#500699
1A!
#500852
0C!
0D!
#500862
0B!
#501022
0Y
#502040
0?!
#502594
1F!
#502732
0k!
#502762
0@!
#503925
0E!
#503931
1H!
#504053
0I!
#504395
1I!
#515790
1"
#516489
1Y
#517521
1?!
#518247
1@!
#518352
1^
#519682
0Z
#519729
1`
#519930
0G!
1J!
#520349
0_
#520609
0S!
0r!
#520613
0t!
#520622
1E!
#520624
1s!
#520728
1b
#520942
0[
#521372
0a
#521494
1t!
#521496
1q!
#521511
0u!
#521841
1e
#522471
0c
#522529
0J
0;
#522782
1I
1:
#522828
0g
#523080
0d
#523363
0B
0&
#523370
0M
0,
#523382
1f
#523410
0N
0.
#524229
0P
02
#524306
1L
1*
#531420
0"
#532282
0Y
#533300
0?!
#534022
0@!
#547050
1"
#547749
1Y
#548781
1?!
#549507
1@!
#549612
0^
#550998
1Z
#551190
1G!
#551559
0M!
#551781
0s!
0H!
#551786
0q!
#551787
0E!
#552247
1[
#552252
0I!
#552527
1N!
#553805
1J
1;
#554502
1N
1.
#554526
0L
0*
#562680
0"
#563542
0Y
#564560
0?!
#565282
0@!
#578310
1"
#579009
1Y
#580041
1?!
#580767
1@!
#580872
1^
#582202
0Z
#582249
0`
#582450
0G!
0J!
1O!
#582803
1M!
#582931
1_
#582956
0M!
#583140
1q!
#583142
1E!
#583144
1s!
#583462
0[
#583893
0t!
#583897
0q!
#584059
0s!
#584071
1S!
#584074
1r!
#585049
0J
0;
#585282
0I
0:
#586253
1H
19
#586864
0O
00
#586889
1B
1&
#586902
1M
1,
#593940
0"
#594802
0Y
#595820
0?!
#596542
0@!
#609570
1"
#610269
1Y
#611301
1?!
#612027
1@!
#612132
0^
#613518
1Z
#613710
1G!
#614299
0r!
#614301
0S!
#614307
0E!
#614311
1H!
#614315
1p!
#614767
1[
#614775
1I!
#616325
1J
1;
#617055
0B
0&
#617060
0M
0,
#617304
1K
1(
#625000
b101 !
#625200
0"
#625689
1D!
#626062
0Y
#627080
0?!
#627802
0@!
#640830
1"
#641529
1Y
#642561
1?!
#643287
1@!
#643392
1^
#644722
0Z
#644769
1`
#644970
0G!
1J!
#645335
0P!
#645389
0_
#645654
0p!
#645659
1S!
1r!
#645662
1E!
#645685
1P!
#645768
0b
#645982
0[
#646496
1a
#646517
0S!
#646520
1s!
#646521
1p!
#646547
0r!
#647569
0J
0;
#647822
1I
1:
#649306
0N
0.
#656460
0"
#657322
0Y
#658340
0?!
#659062
0@!
#672090
1"
#672789
1Y
#673821
1?!
#674547
1@!
#674652
0^
#676038
1Z
#676230
1G!
#676583
1M!
#676821
0s!
0H!
#676825
0p!
#676827
0E!
#676829
1r!
#676832
1t!
#676836
1u!
#676880
0P!
#677287
1[
#677292
0I!
#677537
0N!
#677580
1Q!
#678845
1J
1;
#679542
1N
1.
#679621
1P
12
#679657
1M
1,
#679749
0K
0(
#679875
1O
10
#687720
0"
#688582
0Y
#689600
0?!
#690322
0@!
#703350
1"
#704049
1Y
#705081
1?!
#705807
1@!
#705912
1^
#707242
0Z
#707289
0`
#707490
0G!
0J!
0O!
1R!
#707859
0M!
#707938
1P!
#707971
1_
#708067
1M!
#708169
0r!
#708173
0t!
#708177
0u!
#708182
1E!
#708184
1s!
1p!
#708416
0Q!
#708502
0[
#708579
1q!
#708628
1Q!
#708997
0q!
#709001
0p!
#710089
0J
0;
#710322
0I
0:
#710353
1G
18
#710895
0P
02
#710930
0M
0,
#710970
0N
0.
#711144
0O
00
#711244
0H
09
#718980
0"
#719842
0Y
#720860
0?!
#721582
0@!
#734610
1"
#735309
1Y
#736341
1?!
#737067
1@!
#737172
0^
#738558
1Z
#738750
1G!
#739341
0s!
#739347
0E!
#739351
1H!
#739807
1[
#739815
1I!
#741365
1J
1;
#742062
1N
1.
#750000
b111 !
b11 $
b110 !
#750240
0"
#750689
1C!
#750699
1B!
#750852
0D!
#751102
0Y
#752120
0?!
#752432
0H!
#752600
1W!
#752640
1k!
#752842
0@!
#752903
0I!
#765870
1"
#766569
1Y
#767601
1?!
#768327
1@!
#768432
1^
#769762
0Z
#769809
1`
#770010
0G!
#770379
0M!
#770429
0_
#770701
1H!
#770702
1E!
#770704
1s!
#770753
0P!
#770808
1b
#771022
0[
#771165
1I!
#771347
1N!
#771443
0Q!
#771452
0a
#771921
0e
#772609
0J
0;
#772636
1c
#773191
1d
#773490
0N
0.
#781500
0"
#782362
0Y
#783380
0?!
#784102
0@!
#797130
1"
#797829
1Y
#798861
1?!
#799587
1@!
#799692
0^
#801078
1Z
#801270
1G!
1J!
1O!
0R!
#801623
1M!
#801645
1P!
#801776
0M!
#801861
0s!
#801867
0E!
#802327
1[
#802396
1S!
#802402
1u!
#802407
1r!
#802442
1t!
#802710
0S!
#803885
1J
1;
#804108
0G
08
#804122
1I
1:
#804582
1N
1.
#805073
1H
19
#805187
1P
12
#805235
1M
1,
#805485
1O
10
#812760
0"
#813622
0Y
#814640
0?!
#815362
0@!
#828390
1"
#829089
1Y
#830121
1?!
#830847
1@!
#830952
1^
#832282
0Z
#832329
0`
#832530
0G!
#833011
1_
#833209
0r!
#833211
0H!
#833213
0t!
#833217
0u!
#833222
1E!
#833224
1s!
1p!
#833542
0[
#833682
0I!
#835129
0J
0;
#835935
0P
02
#835970
0M
0,
#836010
0N
0.
#836184
0O
00
#836213
1K
1(
#844020
0"
#844882
0Y
#845900
0?!
#846622
0@!
#859650
1"
#860349
1Y
#861381
1?!
#862107
1@!
#862212
0^
#863598
1Z
#863790
1G!
0J!
#864381
0s!
#864385
0p!
#864387
0E!
#864389
1r!
#864392
1t!
#864396
1u!
#864847
1[
#865420
1p!
#865429
0t!
#865442
0r!
#865447
0u!
#866405
1J
1;
#866622
0I
0:
#867102
1N
1.
#875000
b111 !
#875280
0"
#875689
1D!
#876142
0Y
#877160
0?!
#877882
0@!
#890910
1"
#891609
1Y
#892641
1?!
#893367
1@!
#893472
1^
#894802
0Z
#894849
1`
#895050
0G!
#895403
1M!
#895469
0_
#895734
0p!
#895739
1S!
1r!
#895741
1H!
#895742
1E!
#895848
0b
#896062
0[
#896205
1I!
#896357
0N!
#896576
1a
#897649
0J
0;
#898557
1B
1&
#898567
1M
1,
#898658
0K
0(
#906540
0"
#907402
0Y
#908420
0?!
#909142
0@!
#922170
1"
#922869
1Y
#923901
1?!
#924627
1@!
#924732
0^
#926118
1Z
#926310
1G!
1J!
0O!
#926679
0M!
#926887
1M!
#926899
0r!
#926901
0S!
#926907
0E!
#926915
1p!
#927367
1[
#927839
0p!
#927874
1t!
#928925
1J
1;
#929162
1I
1:
#929655
0B
0&
#929660
0M
0,
#930064
0H
09
#930917
1O
10
#937800
0"
#938662
0Y
#939680
0?!
#940402
0@!
#953430
1"
#954129
1Y
#955161
1?!
#955887
1@!
#955992
1^
#957322
0Z
#957369
0`
#957570
0G!
#958051
1_
#958251
0H!
#958260
1q!
#958262
1E!
#958264
1s!
#958582
0[
#958722
0I!
#960169
0J
0;
#961050
0N
0.
#961070
1L
1*
#969060
0"
#969922
0Y
#970940
0?!
#971662
0@!
#984690
1"
#985389
1Y
#986421
1?!
#987147
1@!
#987252
0^
#988638
1Z
#988830
1G!
0J!
#989421
0s!
#989426
0q!
#989427
0E!
#989585
0W!
#989887
1[
#990451
1S!
#990454
1r!
#990475
1u!
#991445
1J
1;
#991662
0I
0:
#992142
1N
1.
#992166
0L
0*
#993260
1P
12
#993269
1B
1&
#993282
1M
1,
