INF01058/LAB03/ula/simulation/qsim/ula.msim.vcd
$comment
	File created using the following command:
		vcd file ula.msim.vcd -direction
$end
$date
	Thu Nov 09 12:13:19 2023
$end
$version
	ModelSim Version 10.1d
$end
$timescale
	1ps
$end
$scope module ula_vlg_vec_tst $end
$var reg 4 ! A [3:0] $end
$var reg 4 " B [3:0] $end
$var reg 2 # op_sel [1:0] $end
$var wire 1 $ flag_N $end
$var wire 1 % flag_Z $end
$var wire 1 & S [3] $end
$var wire 1 ' S [2] $end
$var wire 1 ( S [1] $end
$var wire 1 ) S [0] $end
$var wire 1 * sampler $end
$scope module i1 $end
$var wire 1 + gnd $end
$var wire 1 , vcc $end
$var wire 1 - unknown $end
$var tri1 1 . devclrn $end
$var tri1 1 / devpor $end
$var tri1 1 0 devoe $end
$var wire 1 1 flag_N~output_o $end
$var wire 1 2 flag_Z~output_o $end
$var wire 1 3 S[3]~output_o $end
$var wire 1 4 S[2]~output_o $end
$var wire 1 5 S[1]~output_o $end
$var wire 1 6 S[0]~output_o $end
$var wire 1 7 op_sel[1]~input_o $end
$var wire 1 8 A[2]~input_o $end
$var wire 1 9 B[2]~input_o $end
$var wire 1 : A[0]~input_o $end
$var wire 1 ; B[1]~input_o $end
$var wire 1 < A[1]~input_o $end
$var wire 1 = B[0]~input_o $end
$var wire 1 > inst|inst2|inst4~0_combout $end
$var wire 1 ? inst12|inst3|inst3~2_combout $end
$var wire 1 @ op_sel[0]~input_o $end
$var wire 1 A B[3]~input_o $end
$var wire 1 B A[3]~input_o $end
$var wire 1 C inst12|inst3|inst3~3_combout $end
$var wire 1 D inst12|inst3|inst3~4_combout $end
$var wire 1 E inst12|inst|inst3~0_combout $end
$var wire 1 F inst12|inst2|inst3~2_combout $end
$var wire 1 G inst12|inst2|inst3~3_combout $end
$var wire 1 H inst12|inst1|inst3~0_combout $end
$var wire 1 I inst12|inst1|inst3~1_combout $end
$var wire 1 J inst12|inst1|inst3~2_combout $end
$var wire 1 K inst13~0_combout $end
$upscope $end
$upscope $end
$enddefinitions $end
#0
$dumpvars
b100 !
b100 "
b0 #
x$
x%
x)
x(
x'
x&
x*
0+
1,
x-
1.
1/
10
x1
x2
x3
x4
x5
x6
07
18
19
0:
0;
0<
0=
x>
x?
0@
0A
0B
xC
xD
xE
xF
xG
xH
xI
xJ
xK
$end
#3172
1?
#3298
0F
#3430
0C
#3464
0I
#3736
0>
#3737
0H
0E
#3760
1D
#4336
0G
#4346
0J
#4350
0K
#6637
13
1&
#6679
11
1$
#7041
02
0%
#7060
04
0'
#7178
05
0(
#8036
06
0)
#160000
b1100 !
b1000 !
b1100 "
b1000 "
0*
#160715
1A
#160735
1B
#160886
08
#160906
09
#164132
0?
#164854
0D
#165466
1K
#167746
03
0&
#167807
01
0$
#168181
12
1%
#300000
b1010 !
b1011 !
b1 #
b1111 !
1*
#300725
18
#300735
1:
#300739
1<
#300745
1@
#303749
1I
#303908
1C
#304213
1D
#304803
0K
#307090
13
1&
#307132
11
1$
#307494
02
0%
#420000
b111 !
b101 !
b100 !
b0 !
0*
#420886
08
#420896
0B
0:
#420902
0<
#424051
0C
#424371
0D
#424983
1K
#427263
03
0&
#427324
01
0$
#427698
12
1%
#560000
b11 #
b10 #
1*
#560735
17
#560906
0@
#563764
1C
1F
#563882
1H
#563898
1E
#564029
0F
#564030
0H
#564069
1D
#564161
0E
#564181
1G
#564479
0G
#564492
0K
#566946
13
1&
#566988
11
1$
#567183
02
0%
#740000
b1000 !
b1010 !
b1011 !
b1111 !
0*
#740725
18
#740735
1B
1:
#740739
1<
#743925
1F
#744196
1E
#744201
1H
#744342
1G
#744757
1J
#747099
14
1'
#747603
15
1(
#748408
16
1)
#860000
b11 #
1*
#860745
1@
#863624
0F
0H
#863748
0E
#863913
0C
#864074
0G
#864233
0J
0D
#864845
1K
#866798
04
0'
#867065
05
0(
#867125
03
0&
#867186
01
0$
#867560
12
1%
#868047
06
0)
