INF01058/LAB02/decod/simulation/qsim/decod.msim.vcd
$comment
	File created using the following command:
		vcd file decod.msim.vcd -direction
$end
$date
	Mon Oct 30 22:35:40 2023
$end
$version
	ModelSim Version 10.1d
$end
$timescale
	1ps
$end
$scope module decod_vlg_vec_tst $end
$var reg 4 ! E [3:0] $end
$var wire 1 " S [15] $end
$var wire 1 # S [14] $end
$var wire 1 $ S [13] $end
$var wire 1 % S [12] $end
$var wire 1 & S [11] $end
$var wire 1 ' S [10] $end
$var wire 1 ( S [9] $end
$var wire 1 ) S [8] $end
$var wire 1 * S [7] $end
$var wire 1 + S [6] $end
$var wire 1 , S [5] $end
$var wire 1 - S [4] $end
$var wire 1 . S [3] $end
$var wire 1 / S [2] $end
$var wire 1 0 S [1] $end
$var wire 1 1 S [0] $end
$var wire 1 2 sampler $end
$scope module i1 $end
$var wire 1 3 gnd $end
$var wire 1 4 vcc $end
$var wire 1 5 unknown $end
$var tri1 1 6 devclrn $end
$var tri1 1 7 devpor $end
$var tri1 1 8 devoe $end
$var wire 1 9 S[15]~output_o $end
$var wire 1 : S[14]~output_o $end
$var wire 1 ; S[13]~output_o $end
$var wire 1 < S[12]~output_o $end
$var wire 1 = S[11]~output_o $end
$var wire 1 > S[10]~output_o $end
$var wire 1 ? S[9]~output_o $end
$var wire 1 @ S[8]~output_o $end
$var wire 1 A S[7]~output_o $end
$var wire 1 B S[6]~output_o $end
$var wire 1 C S[5]~output_o $end
$var wire 1 D S[4]~output_o $end
$var wire 1 E S[3]~output_o $end
$var wire 1 F S[2]~output_o $end
$var wire 1 G S[1]~output_o $end
$var wire 1 H S[0]~output_o $end
$var wire 1 I E[2]~input_o $end
$var wire 1 J E[1]~input_o $end
$var wire 1 K E[3]~input_o $end
$var wire 1 L E[0]~input_o $end
$var wire 1 M inst~0_combout $end
$var wire 1 N inst~1_combout $end
$var wire 1 O inst~2_combout $end
$var wire 1 P inst~3_combout $end
$var wire 1 Q inst~4_combout $end
$var wire 1 R inst~5_combout $end
$var wire 1 S inst~6_combout $end
$var wire 1 T inst~7_combout $end
$var wire 1 U inst~8_combout $end
$var wire 1 V inst~9_combout $end
$var wire 1 W inst~10_combout $end
$var wire 1 X inst~11_combout $end
$var wire 1 Y inst~12_combout $end
$var wire 1 Z inst~13_combout $end
$var wire 1 [ inst~14_combout $end
$var wire 1 \ inst~15_combout $end
$upscope $end
$upscope $end
$enddefinitions $end
#0
$dumpvars
b0 !
x1
x0
x/
x.
x-
x,
x+
x*
x)
x(
x'
x&
x%
x$
x#
x"
x2
03
14
x5
16
17
18
x9
x:
x;
x<
x=
x>
x?
x@
xA
xB
xC
xD
xE
xF
xG
xH
0I
0J
0K
0L
xM
xN
xO
xP
xQ
xR
xS
xT
xU
xV
xW
xX
xY
xZ
x[
x\
$end
#3958
0S
#3959
0Q
#3960
0Y
0[
#4095
0W
#4111
0O
#4114
0P
#4122
0M
#4129
0U
#4151
0N
#4159
0X
#4187
0V
#4246
0R
#4268
0Z
#4852
0T
#4866
1\
#7100
09
0"
#7193
0?
0(
#7355
0C
0,
#7396
0<
0%
#7526
0D
0-
#7544
0>
0'
#7563
0E
0.
#7667
0B
0+
#7873
0:
0#
#7893
0G
00
#7955
0F
0/
#7989
0;
0$
#8209
0A
0*
#8861
0=
0&
#9739
0@
0)
#9828
1H
11
#300000
b1000 !
b1010 !
02
#300507
1J
#300527
1K
#304490
1Z
#304509
0\
#304948
0Z
#304962
1R
#308373
1>
1'
#309400
0H
01
#680000
b1110 !
b1111 !
12
#680507
1I
1L
#684231
1M
#684352
0R
#687309
19
1"
#687650
0>
0'
