INF01058/LAB07/control_test/simulation/qsim/control_test.msim.vcd
$comment
	File created using the following command:
		vcd file control_test.msim.vcd -direction
$end
$date
	Thu Jan 11 11:18:19 2024
$end
$version
	ModelSim Version 10.1d
$end
$timescale
	1ps
$end
$scope module control_test_vlg_vec_tst $end
$var reg 1 ! clk $end
$var reg 1 " N $end
$var reg 4 # op [3:0] $end
$var reg 1 $ rst $end
$var reg 1 % Z $end
$var wire 1 & carga_AC $end
$var wire 1 ' carga_NZ $end
$var wire 1 ( carga_PC $end
$var wire 1 ) carga_RDM $end
$var wire 1 * carga_REM $end
$var wire 1 + carga_RI $end
$var wire 1 , goto_t0 $end
$var wire 1 - inc_PC $end
$var wire 1 . read $end
$var wire 1 / sel $end
$var wire 1 0 ULA_ADD $end
$var wire 1 1 ULA_AND $end
$var wire 1 2 ULA_NOT $end
$var wire 1 3 ULA_OR $end
$var wire 1 4 ULA_Y $end
$var wire 1 5 write $end
$var wire 1 6 sampler $end
$scope module i1 $end
$var wire 1 7 gnd $end
$var wire 1 8 vcc $end
$var wire 1 9 unknown $end
$var tri1 1 : devclrn $end
$var tri1 1 ; devpor $end
$var tri1 1 < devoe $end
$var wire 1 = carga_REM~output_o $end
$var wire 1 > goto_t0~output_o $end
$var wire 1 ? sel~output_o $end
$var wire 1 @ carga_RDM~output_o $end
$var wire 1 A read~output_o $end
$var wire 1 B write~output_o $end
$var wire 1 C carga_AC~output_o $end
$var wire 1 D carga_NZ~output_o $end
$var wire 1 E carga_PC~output_o $end
$var wire 1 F ULA_Y~output_o $end
$var wire 1 G ULA_ADD~output_o $end
$var wire 1 H ULA_AND~output_o $end
$var wire 1 I ULA_OR~output_o $end
$var wire 1 J ULA_NOT~output_o $end
$var wire 1 K inc_PC~output_o $end
$var wire 1 L carga_RI~output_o $end
$var wire 1 M clk~input_o $end
$var wire 1 N inst1|inst~0_combout $end
$var wire 1 O rst~input_o $end
$var wire 1 P op[0]~input_o $end
$var wire 1 Q op[1]~input_o $end
$var wire 1 R op[2]~input_o $end
$var wire 1 S op[3]~input_o $end
$var wire 1 T inst4|inst~10_combout $end
$var wire 1 U inst1|inst~q $end
$var wire 1 V inst1|inst17~combout $end
$var wire 1 W inst1|inst9|inst1~1_combout $end
$var wire 1 X inst4|inst~1_combout $end
$var wire 1 Y Z~input_o $end
$var wire 1 Z inst4|inst~3_combout $end
$var wire 1 [ N~input_o $end
$var wire 1 \ inst4|inst~2_combout $end
$var wire 1 ] inst24|inst31~0_combout $end
$var wire 1 ^ inst24|inst31~1_combout $end
$var wire 1 _ inst1|inst9|inst1~2_combout $end
$var wire 1 ` inst24|inst36~0_combout $end
$var wire 1 a inst4|inst~4_combout $end
$var wire 1 b inst4|inst~5_combout $end
$var wire 1 c inst24|inst36~1_combout $end
$var wire 1 d inst1|inst9|inst1~3_combout $end
$var wire 1 e inst4|inst~0_combout $end
$var wire 1 f inst24|inst25~0_combout $end
$var wire 1 g inst24|inst36~2_combout $end
$var wire 1 h inst1|inst5|inst|inst2~combout $end
$var wire 1 i inst1|inst2~q $end
$var wire 1 j inst1|inst18~combout $end
$var wire 1 k inst1|inst6|inst|inst2~combout $end
$var wire 1 l inst1|inst3~q $end
$var wire 1 m inst1|inst9|inst1~0_combout $end
$var wire 1 n inst24|inst~0_combout $end
$var wire 1 o inst24|inst28~0_combout $end
$var wire 1 p inst24|inst28~1_combout $end
$var wire 1 q inst24|inst6~combout $end
$var wire 1 r inst24|inst36~3_combout $end
$var wire 1 s inst24|inst15~0_combout $end
$var wire 1 t inst24|inst16~0_combout $end
$var wire 1 u inst24|inst17~0_combout $end
$var wire 1 v inst24|inst16~combout $end
$var wire 1 w inst24|inst19~combout $end
$var wire 1 x inst24|inst26~combout $end
$var wire 1 y inst4|inst~6_combout $end
$var wire 1 z inst24|inst20~combout $end
$var wire 1 { inst4|inst~7_combout $end
$var wire 1 | inst24|inst21~combout $end
$var wire 1 } inst4|inst~8_combout $end
$var wire 1 ~ inst24|inst23~combout $end
$var wire 1 !! inst4|inst~9_combout $end
$var wire 1 "! inst24|inst22~combout $end
$var wire 1 #! inst24|inst24~combout $end
$var wire 1 $! inst24|inst5~0_combout $end
$var wire 1 %! inst24|inst9~0_combout $end
$var wire 1 &! inst24|inst9~1_combout $end
$var wire 1 '! inst24|inst9~combout $end
$var wire 1 (! inst1|inst9|inst1~4_combout $end
$upscope $end
$upscope $end
$enddefinitions $end
#0
$dumpvars
1!
0"
b0 #
1$
0%
0&
0'
0(
0)
1*
0+
0,
0-
0.
0/
00
01
02
03
04
05
x6
07
18
x9
1:
1;
1<
1=
0>
0?
0@
0A
0B
0C
0D
0E
0F
0G
0H
0I
0J
0K
0L
1M
1N
1O
0P
0Q
0R
0S
1T
0U
0V
0W
0X
0Y
0Z
0[
0\
0]
0^
0_
0`
1a
0b
0c
0d
0e
0f
0g
0h
0i
0j
0k
0l
1m
0n
0o
0p
1q
0r
0s
0t
0u
0v
0w
0x
0y
0z
0{
0|
0}
0~
0!!
0"!
0#!
0$!
0%!
0&!
0'!
0(!
$end
#5000
0!
0M
06
#10000
1!
1M
16
1U
1%!
1t
0m
1V
0N
1&!
1h
1v
0q
1A
0=
1.
0*
1'!
1K
1-
#15000
0!
0M
06
#20000
1!
1M
16
1i
0U
0%!
0t
1N
1(!
0&!
1L
1+
0v
0A
0.
0'!
0K
0-
#25000
0!
0M
06
#30000
1!
1M
16
1U
1j
1_
0V
0N
0(!
1k
1c
0h
0L
0+
0k
1r
1>
1,
#35000
0!
0M
06
#40000
b1 #
1!
1P
1M
16
1e
0a
1p
0c
1k
1q
0r
1=
0>
1*
0,
0i
0U
1m
0j
0_
1N
0k
#45000
0!
0M
06
#50000
1!
1M
16
1U
1%!
1t
0m
1V
0N
1&!
1h
1v
0q
1A
0=
1.
0*
1'!
1K
1-
#55000
0!
0M
06
#60000
1!
1M
16
1i
0U
0%!
0t
1N
1(!
0&!
1L
1+
0v
0A
0.
0'!
0K
0-
#65000
0!
0M
06
#70000
1!
1M
16
1U
1j
1_
0V
0N
0(!
1k
0h
0L
0+
1q
1=
1*
#75000
0!
0M
06
#80000
1!
1M
16
1l
0i
0U
1%!
1u
0_
1N
1&!
1v
0q
1A
0=
1.
0*
1'!
1K
1-
#85000
0!
0M
06
#90000
1!
1M
16
1U
0%!
0u
1W
1V
0N
0&!
1h
0v
1n
0A
1?
0.
1/
0'!
1q
0K
1=
0-
1*
#95000
0!
0M
06
#100000
1!
1M
16
1i
0U
0W
1N
1s
1@
1)
0n
0?
0/
0q
0=
0*
#105000
0!
0M
06
#110000
1!
1M
16
1U
0j
1d
0V
0N
1w
0s
0k
1g
0h
1B
0@
15
0)
1r
1>
1,
#115000
0!
0M
06
#120000
b11 #
b10 #
1!
0P
1Q
1M
16
1y
0e
1f
1z
0w
1x
1F
0B
1D
1C
14
05
1'
1&
0l
0i
0U
1m
0d
1N
0z
0g
0F
04
1q
0x
1=
0D
0C
1*
0'
0&
0r
0>
0,
#125000
0!
0M
06
#130000
1!
1M
16
1U
1%!
1t
0m
1V
0N
1&!
1h
1v
0q
1A
0=
1.
0*
1'!
1K
1-
#135000
0!
0M
06
#140000
1!
1M
16
1i
0U
0%!
0t
1N
1(!
0&!
1L
1+
0v
0A
0.
0'!
0K
0-
#145000
0!
0M
06
#150000
1!
1M
16
1U
1j
1_
0V
0N
0(!
1k
0h
0L
0+
1q
1=
1*
#155000
0!
0M
06
#160000
1!
1M
16
1l
0i
0U
1u
0_
1N
1'!
1v
0q
1K
1A
0=
1-
1.
0*
#165000
0!
0M
06
#170000
1!
1M
16
1U
0u
1W
1V
0N
1h
0'!
0v
1n
0K
0A
1?
0-
0.
1/
1q
1=
1*
#175000
0!
0M
06
#180000
1!
1M
16
1i
0U
1t
0W
1N
1v
0n
1A
0?
1.
0/
0q
0=
0*
#185000
0!
0M
06
#190000
1!
1M
16
1U
0t
0j
1d
0V
0N
1z
0k
1g
0h
1F
14
0v
1x
0A
1D
1C
0.
1'
1&
1r
1>
1,
#195000
0!
0M
06
#200000
b11 #
1!
1P
1M
16
1{
0y
1|
0z
1G
0F
10
04
0l
0i
0U
1m
0d
1N
0|
0g
0G
00
1q
0x
1=
0D
0C
1*
0'
0&
0r
0>
0,
#205000
0!
0M
06
#210000
1!
1M
16
1U
1%!
1t
0m
1V
0N
1&!
1h
1v
0q
1A
0=
1.
0*
1'!
1K
1-
#215000
0!
0M
06
#220000
1!
1M
16
1i
0U
0%!
0t
1N
1(!
0&!
1L
1+
0v
0A
0.
0'!
0K
0-
#225000
0!
0M
06
#230000
1!
1M
16
1U
1j
1_
0V
0N
0(!
1k
0h
0L
0+
1q
1=
1*
#235000
0!
0M
06
#240000
1!
1M
16
1l
0i
0U
1u
0_
1N
1'!
1v
0q
1K
1A
0=
1-
1.
0*
#245000
0!
0M
06
#250000
1!
1M
16
1U
0u
1W
1V
0N
1h
0'!
0v
1n
0K
0A
1?
0-
0.
1/
1q
1=
1*
#255000
0!
0M
06
#260000
1!
1M
16
1i
0U
1t
0W
1N
1v
0n
1A
0?
1.
0/
0q
0=
0*
#265000
0!
0M
06
#270000
1!
1M
16
1U
0t
0j
1d
0V
0N
1|
0k
1g
0h
1G
10
0v
1x
0A
1D
1C
0.
1'
1&
1r
1>
1,
#275000
0!
0M
06
#280000
b111 #
b101 #
b100 #
1!
0P
0Q
1R
1M
16
1!!
0{
1"!
0|
1I
0G
13
00
0l
0i
0U
1m
0d
1N
0"!
0g
0I
03
1q
0x
1=
0D
0C
1*
0'
0&
0r
0>
0,
#285000
0!
0M
06
#290000
1!
1M
16
1U
1%!
1t
0m
1V
0N
1&!
1h
1v
0q
1A
0=
1.
0*
1'!
1K
1-
#295000
0!
0M
06
#300000
1!
1M
16
1i
0U
0%!
0t
1N
1(!
0&!
1L
1+
0v
0A
0.
0'!
0K
0-
#305000
0!
0M
06
#310000
1!
1M
16
1U
1j
1_
0V
0N
0(!
1k
0h
0L
0+
1q
1=
1*
#315000
0!
0M
06
#320000
1!
1M
16
1l
0i
0U
1u
0_
1N
1'!
1v
0q
1K
1A
0=
1-
1.
0*
#325000
0!
0M
06
#330000
1!
1M
16
1U
0u
1W
1V
0N
1h
0'!
0v
1n
0K
0A
1?
0-
0.
1/
1q
1=
1*
#335000
0!
0M
06
#340000
1!
1M
16
1i
0U
1t
0W
1N
1v
0n
1A
0?
1.
0/
0q
0=
0*
#345000
0!
0M
06
#350000
1!
1M
16
1U
0t
0j
1d
0V
0N
1"!
0k
1g
0h
1I
13
0v
1x
0A
1D
1C
0.
1'
1&
1r
1>
1,
#355000
0!
0M
06
#360000
b101 #
1!
1P
1M
16
0!!
1}
0"!
1~
0I
1H
03
11
0l
0i
0U
1m
0d
1N
0~
0g
0H
01
1q
0x
1=
0D
0C
1*
0'
0&
0r
0>
0,
#365000
0!
0M
06
#370000
1!
1M
16
1U
1%!
1t
0m
1V
0N
1&!
1h
1v
0q
1A
0=
1.
0*
1'!
1K
1-
#375000
0!
0M
06
#380000
1!
1M
16
1i
0U
0%!
0t
1N
1(!
0&!
1L
1+
0v
0A
0.
0'!
0K
0-
#385000
0!
0M
06
#390000
1!
1M
16
1U
1j
1_
0V
0N
0(!
1k
0h
0L
0+
1q
1=
1*
#395000
0!
0M
06
#400000
1!
1M
16
1l
0i
0U
1u
0_
1N
1'!
1v
0q
1K
1A
0=
1-
1.
0*
#405000
0!
0M
06
#410000
1!
1M
16
1U
0u
1W
1V
0N
1h
0'!
0v
1n
0K
0A
1?
0-
0.
1/
1q
1=
1*
#415000
0!
0M
06
#420000
1!
1M
16
1i
0U
1t
0W
1N
1v
0n
1A
0?
1.
0/
0q
0=
0*
#425000
0!
0M
06
#430000
1!
1M
16
1U
0t
0j
1d
0V
0N
1~
0k
1g
0h
1H
11
0v
1x
0A
1D
1C
0.
1'
1&
1r
1>
1,
#435000
0!
0M
06
#440000
b111 #
b110 #
1!
0P
1Q
1M
16
0}
1b
0f
0p
0g
0~
0x
0H
0D
0C
01
0'
0&
0r
0>
0,
0l
0i
0U
1m
0d
1N
1q
1=
1*
#445000
0!
0M
06
#450000
1!
1M
16
1U
1%!
1t
0m
1V
0N
1&!
1h
1v
0q
1A
0=
1.
0*
1'!
1K
1-
#455000
0!
0M
06
#460000
1!
1M
16
1i
0U
0%!
0t
1N
1(!
0&!
1L
1+
0v
0A
0.
0'!
0K
0-
#465000
0!
0M
06
#470000
1!
1M
16
1U
1j
1_
0V
0N
0(!
1#!
1k
1c
0h
0L
1J
0+
12
1x
0k
1D
1C
1'
1&
1r
1>
1,
#475000
0!
0M
06
#480000
b1110 #
b1010 #
b1000 #
1!
0Q
0R
1S
1M
16
0b
1X
0c
1p
0#!
0x
1k
0J
0D
0C
02
0'
0&
0r
1q
0>
1=
0,
1*
0i
0U
1m
0j
0_
1N
0k
#485000
0!
0M
06
#490000
1!
1M
16
1U
1%!
1t
0m
1V
0N
1&!
1h
1v
0q
1A
0=
1.
0*
1'!
1K
1-
#495000
0!
0M
06
#500000
1!
1M
16
1i
0U
0%!
0t
1N
1(!
0&!
1L
1+
0v
0A
0.
0'!
0K
0-
#505000
0!
0M
06
#510000
1!
1M
16
1U
1j
1_
0V
0N
0(!
1k
0h
0L
0+
1q
1=
1*
#515000
0!
0M
06
#520000
1!
1M
16
1l
0i
0U
1u
0_
1N
1v
0q
1A
0=
1.
0*
#525000
0!
0M
06
#530000
1!
1M
16
1U
0u
1W
1V
0N
1h
0v
1^
0k
0h
0A
1E
0.
1(
1r
1>
1,
#535000
0!
0M
06
#540000
b1001 #
1!
1P
1M
16
1\
0X
1`
0p
0^
1k
1h
0E
0(
0r
0>
0,
0l
0U
1m
0j
0W
0V
1N
0k
0h
1q
1=
1*
#545000
0!
0M
06
#550000
1!
1M
16
1U
1%!
1t
0m
1V
0N
1&!
1h
1v
0q
1A
0=
1.
0*
1'!
1K
1-
#555000
0!
0M
06
#560000
1!
1M
16
1i
0U
0%!
0t
1N
1(!
0&!
1L
1+
0v
0A
0.
0'!
0K
0-
#565000
0!
0M
06
#570000
1!
1M
16
1U
1j
1_
0V
0N
0(!
1k
1&!
1c
0h
0L
0+
0k
1'!
1r
1K
1>
1-
1,
#575000
0!
0M
06
#580000
b1011 #
b1010 #
1!
0P
1Q
1M
16
0\
1Z
0&!
1$!
0i
0U
1m
0j
0_
1N
0$!
0c
1q
1=
1*
0'!
0r
0K
0>
0-
0,
#585000
0!
0M
06
#590000
1!
1M
16
1U
1%!
1t
0m
1V
0N
1&!
1h
1v
0q
1A
0=
1.
0*
1'!
1K
1-
#595000
0!
0M
06
#600000
1!
1M
16
1i
0U
0%!
0t
1N
1(!
0&!
1L
1+
0v
0A
0.
0'!
0K
0-
#605000
0!
0M
06
#610000
1!
1M
16
1U
1j
1_
0V
0N
0(!
1k
1$!
1c
0h
0L
0+
0k
1'!
1r
1K
1>
1-
1,
#615000
0!
0M
06
#620000
1"
1%
b1000 #
b1001 #
1!
1[
1Y
1P
0Q
1M
16
1o
0`
1]
0$!
1\
0Z
1p
0c
0'!
1k
0K
0-
1q
0r
1=
0>
1*
0,
0i
0U
1m
0j
0_
1N
0k
#625000
0!
0M
06
#630000
1!
1M
16
1U
1%!
1t
0m
1V
0N
1&!
1h
1v
0q
1A
0=
1.
0*
1'!
1K
1-
#635000
0!
0M
06
#640000
1!
1M
16
1i
0U
0%!
0t
1N
1(!
0&!
1L
1+
0v
0A
0.
0'!
0K
0-
#645000
0!
0M
06
#650000
1!
1M
16
1U
1j
1_
0V
0N
0(!
1k
0h
0L
0+
1q
1=
1*
#655000
0!
0M
06
#660000
1!
1M
16
1l
0i
0U
1u
0_
1N
1v
0q
1A
0=
1.
0*
#665000
0!
0M
06
#670000
1!
1M
16
1U
0u
1W
1V
0N
1h
0v
1^
0k
0h
0A
1E
0.
1(
1r
1>
1,
#675000
0!
0M
06
#680000
b1011 #
b1010 #
1!
0P
1Q
1M
16
0\
1Z
0l
0U
1m
0j
0W
0V
1N
1q
0^
1=
0E
1*
0(
0r
0>
0,
#685000
0!
0M
06
#690000
1!
1M
16
1U
1%!
1t
0m
1V
0N
1&!
1h
1v
0q
1A
0=
1.
0*
1'!
1K
1-
#695000
0!
0M
06
#700000
1!
1M
16
1i
0U
0%!
0t
1N
1(!
0&!
1L
1+
0v
0A
0.
0'!
0K
0-
#705000
0!
0M
06
#710000
1!
1M
16
1U
1j
1_
0V
0N
0(!
1k
0h
0L
0+
1q
1=
1*
#715000
0!
0M
06
#720000
1!
1M
16
1l
0i
0U
1u
0_
1N
1v
0q
1A
0=
1.
0*
#725000
0!
0M
06
#730000
1!
1M
16
1U
0u
1W
1V
0N
1h
0v
1^
0k
0h
0A
1E
0.
1(
1r
1>
1,
#735000
0!
0M
06
#740000
b1110 #
b1111 #
1!
1P
1R
1M
16
0Z
0T
0o
0]
0p
0^
1k
1h
0E
0(
0r
0>
0,
0l
0U
1m
0j
0W
0V
1N
0k
0h
1q
1=
1*
#745000
0!
0M
06
#750000
1!
1M
16
#755000
0!
0M
06
#760000
1!
1M
16
#765000
0!
0M
06
#770000
1!
1M
16
#775000
0!
0M
06
#780000
1!
1M
16
#785000
0!
0M
06
#790000
1!
1M
16
#795000
0!
0M
06
#800000
1!
1M
16
#805000
0!
0M
06
#810000
1!
1M
16
#815000
0!
0M
06
#820000
1!
1M
16
#825000
0!
0M
06
#830000
1!
1M
16
#835000
0!
0M
06
#840000
1!
1M
16
#845000
0!
0M
06
#850000
1!
1M
16
#855000
0!
0M
06
#860000
1!
1M
16
#865000
0!
0M
06
#870000
1!
1M
16
#875000
0!
0M
06
#880000
1!
1M
16
#885000
0!
0M
06
#890000
1!
1M
16
#895000
0!
0M
06
#900000
1!
1M
16
#905000
0!
0M
06
#910000
1!
1M
16
#915000
0!
0M
06
#920000
1!
1M
16
#925000
0!
0M
06
#930000
1!
1M
16
#935000
0!
0M
06
#940000
1!
1M
16
#945000
0!
0M
06
#950000
1!
1M
16
#955000
0!
0M
06
#960000
1!
1M
16
#965000
0!
0M
06
#970000
1!
1M
16
#975000
0!
0M
06
#980000
1!
1M
16
#985000
0!
0M
06
#990000
1!
1M
16
#995000
0!
0M
06
