INF01058/LAB07/control_test/simulation/qsim/control_test.msim.vcd
$comment
	File created using the following command:
		vcd file control_test.msim.vcd -direction
$end
$date
	Thu Jan 25 16:31:13 2024
$end
$version
	ModelSim Version 10.1d
$end
$timescale
	1ps
$end
$scope module control_test_vlg_vec_tst $end
$var reg 1 ! clk $end
$var reg 1 " N $end
$var reg 4 # op [3:0] $end
$var reg 1 $ rst $end
$var reg 1 % Z $end
$var wire 1 & carga_AC $end
$var wire 1 ' carga_NZ $end
$var wire 1 ( carga_PC $end
$var wire 1 ) carga_RDM $end
$var wire 1 * carga_REM $end
$var wire 1 + carga_RI $end
$var wire 1 , goto_t0 $end
$var wire 1 - inc_PC $end
$var wire 1 . read $end
$var wire 1 / sel $end
$var wire 1 0 ULA_ADD $end
$var wire 1 1 ULA_AND $end
$var wire 1 2 ULA_NOT $end
$var wire 1 3 ULA_OR $end
$var wire 1 4 ULA_Y $end
$var wire 1 5 write $end
$var wire 1 6 sampler $end
$scope module i1 $end
$var wire 1 7 gnd $end
$var wire 1 8 vcc $end
$var wire 1 9 unknown $end
$var tri1 1 : devclrn $end
$var tri1 1 ; devpor $end
$var tri1 1 < devoe $end
$var wire 1 = carga_REM~output_o $end
$var wire 1 > goto_t0~output_o $end
$var wire 1 ? sel~output_o $end
$var wire 1 @ carga_RDM~output_o $end
$var wire 1 A read~output_o $end
$var wire 1 B write~output_o $end
$var wire 1 C carga_AC~output_o $end
$var wire 1 D carga_NZ~output_o $end
$var wire 1 E carga_PC~output_o $end
$var wire 1 F ULA_Y~output_o $end
$var wire 1 G ULA_ADD~output_o $end
$var wire 1 H ULA_AND~output_o $end
$var wire 1 I ULA_OR~output_o $end
$var wire 1 J ULA_NOT~output_o $end
$var wire 1 K inc_PC~output_o $end
$var wire 1 L carga_RI~output_o $end
$var wire 1 M clk~input_o $end
$var wire 1 N clk~inputclkctrl_outclk $end
$var wire 1 O inst1|inst~0_combout $end
$var wire 1 P rst~input_o $end
$var wire 1 Q rst~inputclkctrl_outclk $end
$var wire 1 R op[3]~input_o $end
$var wire 1 S op[0]~input_o $end
$var wire 1 T op[1]~input_o $end
$var wire 1 U op[2]~input_o $end
$var wire 1 V inst4|inst~10_combout $end
$var wire 1 W inst1|inst~q $end
$var wire 1 X N~input_o $end
$var wire 1 Y inst4|inst~3_combout $end
$var wire 1 Z Z~input_o $end
$var wire 1 [ inst4|inst~2_combout $end
$var wire 1 \ inst24|inst36~0_combout $end
$var wire 1 ] inst4|inst~4_combout $end
$var wire 1 ^ inst4|inst~5_combout $end
$var wire 1 _ inst1|inst17~combout $end
$var wire 1 ` inst4|inst~1_combout $end
$var wire 1 a inst24|inst31~0_combout $end
$var wire 1 b inst1|inst9|inst1~1_combout $end
$var wire 1 c inst24|inst31~1_combout $end
$var wire 1 d inst4|inst~0_combout $end
$var wire 1 e inst24|inst25~0_combout $end
$var wire 1 f inst1|inst9|inst1~3_combout $end
$var wire 1 g inst24|inst36~2_combout $end
$var wire 1 h inst1|inst5|inst|inst2~combout $end
$var wire 1 i inst1|inst2~q $end
$var wire 1 j inst1|inst9|inst1~2_combout $end
$var wire 1 k inst24|inst36~1_combout $end
$var wire 1 l inst1|inst18~combout $end
$var wire 1 m inst1|inst6|inst|inst2~combout $end
$var wire 1 n inst1|inst3~q $end
$var wire 1 o inst1|inst9|inst1~0_combout $end
$var wire 1 p inst24|inst28~0_combout $end
$var wire 1 q inst24|inst28~1_combout $end
$var wire 1 r inst24|inst~0_combout $end
$var wire 1 s inst24|inst6~combout $end
$var wire 1 t inst24|inst36~3_combout $end
$var wire 1 u inst24|inst15~0_combout $end
$var wire 1 v inst24|inst16~0_combout $end
$var wire 1 w inst24|inst17~0_combout $end
$var wire 1 x inst24|inst16~combout $end
$var wire 1 y inst24|inst19~combout $end
$var wire 1 z inst24|inst26~combout $end
$var wire 1 { inst4|inst~6_combout $end
$var wire 1 | inst24|inst20~combout $end
$var wire 1 } inst4|inst~7_combout $end
$var wire 1 ~ inst24|inst21~combout $end
$var wire 1 !! inst4|inst~8_combout $end
$var wire 1 "! inst24|inst23~combout $end
$var wire 1 #! inst4|inst~9_combout $end
$var wire 1 $! inst24|inst22~combout $end
$var wire 1 %! inst24|inst24~combout $end
$var wire 1 &! inst24|inst9~0_combout $end
$var wire 1 '! inst24|inst9~1_combout $end
$var wire 1 (! inst24|inst5~0_combout $end
$var wire 1 )! inst24|inst9~combout $end
$var wire 1 *! inst1|inst9|inst1~4_combout $end
$upscope $end
$upscope $end
$enddefinitions $end
#0
$dumpvars
0!
0"
b0 #
1$
0%
x&
x'
x(
x)
x*
x+
x,
x-
x.
x/
x0
x1
x2
x3
x4
x5
x6
07
18
x9
1:
1;
1<
x=
x>
x?
x@
xA
xB
xC
xD
xE
xF
xG
xH
xI
xJ
xK
xL
0M
xN
1O
1P
xQ
0R
0S
0T
0U
xV
0W
0X
xY
0Z
x[
x\
x]
x^
x_
x`
xa
xb
xc
xd
xe
xf
xg
xh
0i
xj
xk
xl
xm
0n
xo
xp
xq
xr
xs
xt
xu
xv
xw
xx
xy
xz
x{
x|
x}
x~
x!!
x"!
x#!
x$!
x%!
x&!
x'!
x(!
x)!
x*!
$end
#145
0N
#163
1Q
#470
0b
#482
0_
#596
0f
#599
0j
#732
0l
#754
0*!
#810
0c
#861
0u
0y
#864
0%!
#911
0w
#935
0g
#939
0k
#977
0$!
#980
0|
#981
0~
0"!
#1072
0h
#1102
1o
#1103
0v
#1121
0&!
#1234
0r
0(!
#1320
0m
#1440
0'!
#1546
0z
#1657
1s
#1672
0t
#1718
0x
#2046
0)!
#3325
0E
0(
#3334
0B
05
#3362
0@
0)
#3396
0L
0+
#3470
0H
01
#3482
0G
00
#3494
0#!
#3497
0I
0!!
03
#3611
1V
#3614
0^
#3617
0{
#3618
0e
0}
#3621
0Y
#3665
0p
#3666
0a
#3792
0`
#3798
0F
04
#3810
0[
#3826
0d
#3830
1]
#3954
0?
0/
#4180
0C
0&
#4206
0A
0.
#4208
1=
1*
#4231
0D
0'
#4459
0>
0,
#4499
0\
#4655
0q
#4725
0K
0-
#4728
0J
02
#5000
1!
06
#5775
1M
#5938
1N
#7623
1W
#7992
0O
#8136
1_
#8645
1&!
#8649
1v
#8655
0o
#8692
1h
#8949
1'!
#9206
1x
#9267
0s
#9502
1)!
#10000
0!
16
#10936
0M
#11081
0N
#11754
0=
0*
#11761
1A
1.
#12256
1K
1-
#15000
1!
06
#15775
1M
#15938
1N
#17623
0W
1i
#17976
1O
#18375
0&!
#18382
0v
#18694
0'!
#18714
1*!
#18997
0x
#19300
0)!
#20000
0!
16
#20936
0M
#21081
0N
#21429
1L
1+
#21485
0A
0.
#21979
0K
0-
#25000
1!
06
#25775
1M
#25938
1N
#27623
1W
#27992
0O
#28132
1j
#28134
0_
#28262
1l
#28457
1k
#28630
0*!
#28724
0h
#28924
1t
#30000
0!
16
#30936
0M
#31081
0N
#31272
0L
0+
#31766
1>
1,
#35000
1!
06
#35775
1M
#35938
1N
#37623
0W
0i
#37976
1O
#38222
0j
#38355
0l
#38562
0k
#38725
1o
#39034
0t
#39280
1s
#40000
b1 #
0!
16
#40709
1S
#40936
0M
#41081
0N
#41821
0>
0,
#41831
1=
1*
#44245
1d
#44263
0]
#45000
1!
06
#45058
1q
#45775
1M
#45938
1N
#47623
1W
#47992
0O
#48136
1_
#48645
1&!
#48649
1v
#48655
0o
#48692
1h
#48949
1'!
#49206
1x
#49267
0s
#49502
1)!
#50000
0!
16
#50936
0M
#51081
0N
#51754
0=
0*
#51761
1A
1.
#52256
1K
1-
#55000
1!
06
#55775
1M
#55938
1N
#57623
0W
1i
#57976
1O
#58375
0&!
#58382
0v
#58694
0'!
#58714
1*!
#58997
0x
#59300
0)!
#60000
0!
16
#60936
0M
#61081
0N
#61429
1L
1+
#61485
0A
0.
#61979
0K
0-
#65000
1!
06
#65775
1M
#65938
1N
#67623
1W
#67992
0O
#68132
1j
#68134
0_
#68262
1l
#68630
0*!
#68724
0h
#68732
1s
#68817
1m
#70000
0!
16
#70936
0M
#71081
0N
#71272
0L
0+
#71283
1=
1*
#75000
1!
06
#75775
1M
#75938
1N
#77623
0W
0i
1n
#77976
1O
#78009
0l
#78249
0j
#78355
1l
#78732
1&!
#78743
1w
#78885
0s
#79036
1'!
#79253
1x
#79589
1)!
#80000
0!
16
#80936
0M
#81081
0N
#81372
0=
0*
#81808
1A
1.
#82343
1K
1-
#85000
1!
06
#85775
1M
#85938
1N
#87623
1W
#87992
0O
#88132
1b
#88136
1_
#88657
0&!
#88667
0w
#88692
1h
#88838
1r
#88976
0'!
#89164
1s
#89221
0x
#89582
0)!
#90000
0!
16
#90936
0M
#91081
0N
#91641
1?
1/
#91709
0A
0.
#91715
1=
1*
#92261
0K
0-
#95000
1!
06
#95775
1M
#95938
1N
#97623
0W
1i
#97976
1O
#98258
0b
#98701
1u
#99022
0r
#99364
0s
#100000
0!
16
#100936
0M
#101081
0N
#101265
1@
1)
#101742
0?
0/
#101851
0=
0*
#105000
1!
06
#105775
1M
#105938
1N
#107623
1W
#107992
0O
#108132
1f
#108134
0_
#108262
0l
#108455
1g
#108594
1y
#108622
0u
#108724
0h
#108850
0m
#109175
1t
#110000
0!
16
#110936
0M
#111081
0N
#111123
0@
0)
#111128
1B
15
#112017
1>
1,
#115000
1!
06
#115775
1M
#115938
1N
#117623
0W
0i
0n
#117976
1O
#118219
0f
#118484
0y
#118558
0g
#118725
1o
#119280
1s
#119316
0t
#120000
b11 #
b10 #
0!
16
#120709
1T
#120872
0S
#120936
0M
#120957
0B
05
#121081
0N
#121831
1=
1*
#122103
0>
0,
#124031
1}
#124039
0d
#124044
1e
#124672
0}
#124685
1{
#125000
1!
06
#125775
1M
#125938
1N
#127623
1W
#127992
0O
#128136
1_
#128645
1&!
#128649
1v
#128655
0o
#128692
1h
#128949
1'!
#129206
1x
#129267
0s
#129502
1)!
#130000
0!
16
#130936
0M
#131081
0N
#131754
0=
0*
#131761
1A
1.
#132256
1K
1-
#135000
1!
06
#135775
1M
#135938
1N
#137623
0W
1i
#137976
1O
#138375
0&!
#138382
0v
#138694
0'!
#138714
1*!
#138997
0x
#139300
0)!
#140000
0!
16
#140936
0M
#141081
0N
#141429
1L
1+
#141485
0A
0.
#141979
0K
0-
#145000
1!
06
#145775
1M
#145938
1N
#147623
1W
#147992
0O
#148132
1j
#148134
0_
#148262
1l
#148630
0*!
#148724
0h
#148732
1s
#148817
1m
#150000
0!
16
#150936
0M
#151081
0N
#151272
0L
0+
#151283
1=
1*
#155000
1!
06
#155775
1M
#155938
1N
#157623
0W
0i
1n
#157976
1O
#158009
0l
#158249
0j
#158355
1l
#158743
1w
#158885
0s
#159057
1)!
#159253
1x
#160000
0!
16
#160936
0M
#161081
0N
#161372
0=
0*
#161808
1A
1.
#161811
1K
1-
#165000
1!
06
#165775
1M
#165938
1N
#167623
1W
#167992
0O
#168132
1b
#168136
1_
#168667
0w
#168692
1h
#168838
1r
#169000
0)!
#169164
1s
#169221
0x
#170000
0!
16
#170936
0M
#171081
0N
#171641
1?
1/
#171679
0K
0-
#171709
0A
0.
#171715
1=
1*
#175000
1!
06
#175775
1M
#175938
1N
#177623
0W
1i
#177976
1O
#178258
0b
#178731
1v
#179022
0r
#179288
1x
#179364
0s
#180000
0!
16
#180936
0M
#181081
0N
#181742
0?
0/
#181843
1A
1.
#181851
0=
0*
#185000
1!
06
#185775
1M
#185938
1N
#187623
1W
#187992
0O
#188132
1f
#188134
0_
#188262
0l
#188455
1g
#188546
1|
#188644
0v
#188724
0h
#188850
0m
#189094
1z
#189175
1t
#189259
0x
#190000
0!
16
#190936
0M
#191081
0N
#191412
1F
14
#191747
0A
0.
#191800
1C
1&
#191853
1D
1'
#192017
1>
1,
#195000
1!
06
#195775
1M
#195938
1N
#197623
0W
0i
0n
#197976
1O
#198219
0f
#198558
0g
#198603
0|
#198725
1o
#199169
0z
#199280
1s
#199316
0t
#200000
b11 #
0!
16
#200709
1S
#200936
0M
#201081
0N
#201421
0F
04
#201803
0C
0&
#201831
1=
1*
#201854
0D
0'
#202103
0>
0,
#204234
1}
#204240
0{
#205000
1!
06
#205775
1M
#205938
1N
#207623
1W
#207992
0O
#208136
1_
#208645
1&!
#208649
1v
#208655
0o
#208692
1h
#208949
1'!
#209206
1x
#209267
0s
#209502
1)!
#210000
0!
16
#210936
0M
#211081
0N
#211754
0=
0*
#211761
1A
1.
#212256
1K
1-
#215000
1!
06
#215775
1M
#215938
1N
#217623
0W
1i
#217976
1O
#218375
0&!
#218382
0v
#218694
0'!
#218714
1*!
#218997
0x
#219300
0)!
#220000
0!
16
#220936
0M
#221081
0N
#221429
1L
1+
#221485
0A
0.
#221979
0K
0-
#225000
1!
06
#225775
1M
#225938
1N
#227623
1W
#227992
0O
#228132
1j
#228134
0_
#228262
1l
#228630
0*!
#228724
0h
#228732
1s
#228817
1m
#230000
0!
16
#230936
0M
#231081
0N
#231272
0L
0+
#231283
1=
1*
#235000
1!
06
#235775
1M
#235938
1N
#237623
0W
0i
1n
#237976
1O
#238009
0l
#238249
0j
#238355
1l
#238743
1w
#238885
0s
#239057
1)!
#239253
1x
#240000
0!
16
#240936
0M
#241081
0N
#241372
0=
0*
#241808
1A
1.
#241811
1K
1-
#245000
1!
06
#245775
1M
#245938
1N
#247623
1W
#247992
0O
#248132
1b
#248136
1_
#248667
0w
#248692
1h
#248838
1r
#249000
0)!
#249164
1s
#249221
0x
#250000
0!
16
#250936
0M
#251081
0N
#251641
1?
1/
#251679
0K
0-
#251709
0A
0.
#251715
1=
1*
#255000
1!
06
#255775
1M
#255938
1N
#257623
0W
1i
#257976
1O
#258258
0b
#258731
1v
#259022
0r
#259288
1x
#259364
0s
#260000
0!
16
#260936
0M
#261081
0N
#261742
0?
0/
#261843
1A
1.
#261851
0=
0*
#265000
1!
06
#265775
1M
#265938
1N
#267623
1W
#267992
0O
#268132
1f
#268134
0_
#268262
0l
#268455
1g
#268547
1~
#268644
0v
#268724
0h
#268850
0m
#269094
1z
#269175
1t
#269259
0x
#270000
0!
16
#270936
0M
#271081
0N
#271110
1G
10
#271747
0A
0.
#271800
1C
1&
#271853
1D
1'
#272017
1>
1,
#275000
1!
06
#275775
1M
#275938
1N
#277623
0W
0i
0n
#277976
1O
#278219
0f
#278558
0g
#278604
0~
#278725
1o
#279169
0z
#279280
1s
#279316
0t
#280000
b111 #
b101 #
b100 #
0!
16
#280699
1U
#280872
0T
0S
#280936
0M
#281081
0N
#281105
0G
00
#281803
0C
0&
#281831
1=
1*
#281854
0D
0'
#282103
0>
0,
#283903
0e
#283911
0}
#284492
1e
#284654
1#!
#285000
1!
06
#285775
1M
#285938
1N
#287623
1W
#287992
0O
#288136
1_
#288645
1&!
#288649
1v
#288655
0o
#288692
1h
#288949
1'!
#289206
1x
#289267
0s
#289502
1)!
#290000
0!
16
#290936
0M
#291081
0N
#291754
0=
0*
#291761
1A
1.
#292256
1K
1-
#295000
1!
06
#295775
1M
#295938
1N
#297623
0W
1i
#297976
1O
#298375
0&!
#298382
0v
#298694
0'!
#298714
1*!
#298997
0x
#299300
0)!
#300000
0!
16
#300936
0M
#301081
0N
#301429
1L
1+
#301485
0A
0.
#301979
0K
0-
#305000
1!
06
#305775
1M
#305938
1N
#307623
1W
#307992
0O
#308132
1j
#308134
0_
#308262
1l
#308630
0*!
#308724
0h
#308732
1s
#308817
1m
#310000
0!
16
#310936
0M
#311081
0N
#311272
0L
0+
#311283
1=
1*
#315000
1!
06
#315775
1M
#315938
1N
#317623
0W
0i
1n
#317976
1O
#318009
0l
#318249
0j
#318355
1l
#318743
1w
#318885
0s
#319057
1)!
#319253
1x
#320000
0!
16
#320936
0M
#321081
0N
#321372
0=
0*
#321808
1A
1.
#321811
1K
1-
#325000
1!
06
#325775
1M
#325938
1N
#327623
1W
#327992
0O
#328132
1b
#328136
1_
#328667
0w
#328692
1h
#328838
1r
#329000
0)!
#329164
1s
#329221
0x
#330000
0!
16
#330936
0M
#331081
0N
#331641
1?
1/
#331679
0K
0-
#331709
0A
0.
#331715
1=
1*
#335000
1!
06
#335775
1M
#335938
1N
#337623
0W
1i
#337976
1O
#338258
0b
#338731
1v
#339022
0r
#339288
1x
#339364
0s
#340000
0!
16
#340936
0M
#341081
0N
#341742
0?
0/
#341843
1A
1.
#341851
0=
0*
#345000
1!
06
#345775
1M
#345938
1N
#347623
1W
#347992
0O
#348132
1f
#348134
0_
#348262
0l
#348455
1g
#348543
1$!
#348644
0v
#348724
0h
#348850
0m
#349094
1z
#349175
1t
#349259
0x
#350000
0!
16
#350936
0M
#351081
0N
#351128
1I
13
#351747
0A
0.
#351800
1C
1&
#351853
1D
1'
#352017
1>
1,
#355000
1!
06
#355775
1M
#355938
1N
#357623
0W
0i
0n
#357976
1O
#358219
0f
#358558
0g
#358600
0$!
#358725
1o
#359169
0z
#359280
1s
#359316
0t
#360000
b101 #
0!
16
#360709
1S
#360936
0M
#361081
0N
#361120
0I
03
#361803
0C
0&
#361831
1=
1*
#361854
0D
0'
#362103
0>
0,
#364194
1!!
#364204
0#!
#365000
1!
06
#365775
1M
#365938
1N
#367623
1W
#367992
0O
#368136
1_
#368645
1&!
#368649
1v
#368655
0o
#368692
1h
#368949
1'!
#369206
1x
#369267
0s
#369502
1)!
#370000
0!
16
#370936
0M
#371081
0N
#371754
0=
0*
#371761
1A
1.
#372256
1K
1-
#375000
1!
06
#375775
1M
#375938
1N
#377623
0W
1i
#377976
1O
#378375
0&!
#378382
0v
#378694
0'!
#378714
1*!
#378997
0x
#379300
0)!
#380000
0!
16
#380936
0M
#381081
0N
#381429
1L
1+
#381485
0A
0.
#381979
0K
0-
#385000
1!
06
#385775
1M
#385938
1N
#387623
1W
#387992
0O
#388132
1j
#388134
0_
#388262
1l
#388630
0*!
#388724
0h
#388732
1s
#388817
1m
#390000
0!
16
#390936
0M
#391081
0N
#391272
0L
0+
#391283
1=
1*
#395000
1!
06
#395775
1M
#395938
1N
#397623
0W
0i
1n
#397976
1O
#398009
0l
#398249
0j
#398355
1l
#398743
1w
#398885
0s
#399057
1)!
#399253
1x
#400000
0!
16
#400936
0M
#401081
0N
#401372
0=
0*
#401808
1A
1.
#401811
1K
1-
#405000
1!
06
#405775
1M
#405938
1N
#407623
1W
#407992
0O
#408132
1b
#408136
1_
#408667
0w
#408692
1h
#408838
1r
#409000
0)!
#409164
1s
#409221
0x
#410000
0!
16
#410936
0M
#411081
0N
#411641
1?
1/
#411679
0K
0-
#411709
0A
0.
#411715
1=
1*
#415000
1!
06
#415775
1M
#415938
1N
#417623
0W
1i
#417976
1O
#418258
0b
#418731
1v
#419022
0r
#419288
1x
#419364
0s
#420000
0!
16
#420936
0M
#421081
0N
#421742
0?
0/
#421843
1A
1.
#421851
0=
0*
#425000
1!
06
#425775
1M
#425938
1N
#427623
1W
#427992
0O
#428132
1f
#428134
0_
#428262
0l
#428455
1g
#428547
1"!
#428644
0v
#428724
0h
#428850
0m
#429094
1z
#429175
1t
#429259
0x
#430000
0!
16
#430936
0M
#431081
0N
#431103
1H
11
#431747
0A
0.
#431800
1C
1&
#431853
1D
1'
#432017
1>
1,
#435000
1!
06
#435775
1M
#435938
1N
#437623
0W
0i
0n
#437976
1O
#438219
0f
#438558
0g
#438604
0"!
#438725
1o
#439169
0z
#439280
1s
#439316
0t
#440000
b111 #
b110 #
0!
16
#440709
1T
#440872
0S
#440936
0M
#441081
0N
#441093
0H
01
#441803
0C
0&
#441831
1=
1*
#441854
0D
0'
#442103
0>
0,
#444029
0!!
#444042
0e
#444653
1^
#445000
1!
06
#445041
0q
#445775
1M
#445938
1N
#447623
1W
#447992
0O
#448136
1_
#448645
1&!
#448649
1v
#448655
0o
#448692
1h
#448949
1'!
#449206
1x
#449267
0s
#449502
1)!
#450000
0!
16
#450936
0M
#451081
0N
#451754
0=
0*
#451761
1A
1.
#452256
1K
1-
#455000
1!
06
#455775
1M
#455938
1N
#457623
0W
1i
#457976
1O
#458375
0&!
#458382
0v
#458694
0'!
#458714
1*!
#458997
0x
#459300
0)!
#460000
0!
16
#460936
0M
#461081
0N
#461429
1L
1+
#461485
0A
0.
#461979
0K
0-
#465000
1!
06
#465775
1M
#465938
1N
#467623
1W
#467992
0O
#468132
1j
#468134
0_
#468262
1l
#468457
1k
#468551
1%!
#468630
0*!
#468716
1z
#468724
0h
#468924
1t
#470000
0!
16
#470936
0M
#471081
0N
#471272
0L
0+
#471422
1C
1&
#471475
1D
1'
#471766
1>
1,
#472360
1J
12
#475000
1!
06
#475775
1M
#475938
1N
#477623
0W
0i
#477976
1O
#478222
0j
#478355
0l
#478487
0%!
#478562
0k
#478725
1o
#478825
0z
#479034
0t
#479280
1s
#480000
b1110 #
b1010 #
b1000 #
0!
16
#480669
1R
#480862
0U
#480872
0T
#480936
0M
#481081
0N
#481459
0C
0&
#481510
0D
0'
#481821
0>
0,
#481831
1=
1*
#482351
0J
02
#484105
0^
#484491
1`
#485000
1!
06
#485200
1q
#485775
1M
#485938
1N
#487623
1W
#487992
0O
#488136
1_
#488645
1&!
#488649
1v
#488655
0o
#488692
1h
#488949
1'!
#489206
1x
#489267
0s
#489502
1)!
#490000
0!
16
#490936
0M
#491081
0N
#491754
0=
0*
#491761
1A
1.
#492256
1K
1-
#495000
1!
06
#495775
1M
#495938
1N
#497623
0W
1i
#497976
1O
#498375
0&!
#498382
0v
#498694
0'!
#498714
1*!
#498997
0x
#499300
0)!
#500000
0!
16
#500936
0M
#501081
0N
#501429
1L
1+
#501485
0A
0.
#501979
0K
0-
#505000
1!
06
#505775
1M
#505938
1N
#507623
1W
#507992
0O
#508132
1j
#508134
0_
#508262
1l
#508630
0*!
#508724
0h
#508732
1s
#508817
1m
#510000
0!
16
#510936
0M
#511081
0N
#511272
0L
0+
#511283
1=
1*
#515000
1!
06
#515775
1M
#515938
1N
#517623
0W
0i
1n
#517976
1O
#518009
0l
#518249
0j
#518355
1l
#518743
1w
#518885
0s
#519253
1x
#520000
0!
16
#520936
0M
#521081
0N
#521372
0=
0*
#521808
1A
1.
#525000
1!
06
#525775
1M
#525938
1N
#527623
1W
#527992
0O
#528132
1b
#528136
1_
#528457
1c
#528667
0w
#528902
0m
#529221
0x
#529312
1t
#530000
0!
16
#530936
0M
#531034
1E
1(
#531081
0N
#531709
0A
0.
#532154
1>
1,
#535000
1!
06
#535775
1M
#535938
1N
#537623
0W
0n
#537976
1O
#538089
0l
#538093
0b
#538223
0_
#538433
0c
#538725
1o
#539280
1s
#539295
0t
#540000
b1001 #
0!
16
#540709
1S
#540936
0M
#540948
0E
0(
#541081
0N
#541831
1=
1*
#542082
0>
0,
#544231
1[
#544266
0`
#544915
1\
#545000
1!
06
#545005
0q
#545775
1M
#545938
1N
#547623
1W
#547992
0O
#548136
1_
#548645
1&!
#548649
1v
#548655
0o
#548692
1h
#548949
1'!
#549206
1x
#549267
0s
#549502
1)!
#550000
0!
16
#550936
0M
#551081
0N
#551754
0=
0*
#551761
1A
1.
#552256
1K
1-
#555000
1!
06
#555775
1M
#555938
1N
#557623
0W
1i
#557976
1O
#558375
0&!
#558382
0v
#558694
0'!
#558714
1*!
#558997
0x
#559300
0)!
#560000
0!
16
#560936
0M
#561081
0N
#561429
1L
1+
#561485
0A
0.
#561979
0K
0-
#565000
1!
06
#565775
1M
#565938
1N
#567623
1W
#567992
0O
#568132
1j
#568134
0_
#568262
1l
#568457
1k
#568630
0*!
#568724
0h
#568858
1'!
#568924
1t
#569411
1)!
#570000
0!
16
#570936
0M
#571081
0N
#571272
0L
0+
#571766
1>
1,
#572165
1K
1-
#575000
1!
06
#575775
1M
#575938
1N
#577623
0W
0i
#577976
1O
#578222
0j
#578355
0l
#578562
0k
#578725
1o
#579019
0'!
#579034
0t
#579280
1s
#579625
0)!
#580000
b1011 #
b1010 #
0!
16
#580709
1T
#580872
0S
#580936
0M
#581081
0N
#581821
0>
0,
#581831
1=
1*
#582304
0K
0-
#584044
0[
#584711
1Y
#584733
0\
#585000
1!
06
#585688
1\
#585775
1M
#585938
1N
#587623
1W
#587992
0O
#588136
1_
#588645
1&!
#588649
1v
#588655
0o
#588692
1h
#588949
1'!
#589206
1x
#589267
0s
#589502
1)!
#590000
0!
16
#590936
0M
#591081
0N
#591754
0=
0*
#591761
1A
1.
#592256
1K
1-
#595000
1!
06
#595775
1M
#595938
1N
#597623
0W
1i
#597976
1O
#598375
0&!
#598382
0v
#598694
0'!
#598714
1*!
#598997
0x
#599300
0)!
#600000
0!
16
#600936
0M
#601081
0N
#601429
1L
1+
#601485
0A
0.
#601979
0K
0-
#605000
1!
06
#605775
1M
#605938
1N
#607623
1W
#607992
0O
#608132
1j
#608134
0_
#608262
1l
#608457
1k
#608630
0*!
#608724
0h
#608733
1(!
#608924
1t
#609149
1)!
#610000
0!
16
#610936
0M
#611081
0N
#611272
0L
0+
#611766
1>
1,
#611903
1K
1-
#615000
1!
06
#615775
1M
#615938
1N
#617623
0W
0i
#617976
1O
#618222
0j
#618355
0l
#618562
0k
#618725
1o
#618857
0(!
#619034
0t
#619280
1s
#619305
0)!
#620000
1"
1%
b1000 #
b1001 #
0!
16
#620689
1Z
#620699
1X
#620709
1S
#620872
0T
#620936
0M
#621081
0N
#621821
0>
0,
#621831
1=
1*
#621984
0K
0-
#623656
0\
#623658
1a
#623661
1p
#624103
1q
#624258
0Y
#624495
1[
#625000
1!
06
#625775
1M
#625938
1N
#627623
1W
#627992
0O
#628136
1_
#628645
1&!
#628649
1v
#628655
0o
#628692
1h
#628949
1'!
#629206
1x
#629267
0s
#629502
1)!
#630000
0!
16
#630936
0M
#631081
0N
#631754
0=
0*
#631761
1A
1.
#632256
1K
1-
#635000
1!
06
#635775
1M
#635938
1N
#637623
0W
1i
#637976
1O
#638375
0&!
#638382
0v
#638694
0'!
#638714
1*!
#638997
0x
#639300
0)!
#640000
0!
16
#640936
0M
#641081
0N
#641429
1L
1+
#641485
0A
0.
#641979
0K
0-
#645000
1!
06
#645775
1M
#645938
1N
#647623
1W
#647992
0O
#648132
1j
#648134
0_
#648262
1l
#648630
0*!
#648724
0h
#648732
1s
#648817
1m
#650000
0!
16
#650936
0M
#651081
0N
#651272
0L
0+
#651283
1=
1*
#655000
1!
06
#655775
1M
#655938
1N
#657623
0W
0i
1n
#657976
1O
#658009
0l
#658249
0j
#658355
1l
#658743
1w
#658885
0s
#659253
1x
#660000
0!
16
#660936
0M
#661081
0N
#661372
0=
0*
#661808
1A
1.
#665000
1!
06
#665775
1M
#665938
1N
#667623
1W
#667992
0O
#668132
1b
#668136
1_
#668457
1c
#668667
0w
#668902
0m
#669221
0x
#669312
1t
#670000
0!
16
#670936
0M
#671034
1E
1(
#671081
0N
#671709
0A
0.
#672154
1>
1,
#675000
1!
06
#675775
1M
#675938
1N
#677623
0W
0n
#677976
1O
#678089
0l
#678093
0b
#678223
0_
#678433
0c
#678725
1o
#679280
1s
#679295
0t
#680000
b1011 #
b1010 #
0!
16
#680709
1T
#680872
0S
#680936
0M
#680948
0E
0(
#681081
0N
#681831
1=
1*
#682082
0>
0,
#684044
0[
#684711
1Y
#684732
0a
0p
#685000
1!
06
#685178
0q
#685673
1a
#685676
1p
#685775
1M
#685938
1N
#686118
1q
#687623
1W
#687992
0O
#688136
1_
#688645
1&!
#688649
1v
#688655
0o
#688692
1h
#688949
1'!
#689206
1x
#689267
0s
#689502
1)!
#690000
0!
16
#690936
0M
#691081
0N
#691754
0=
0*
#691761
1A
1.
#692256
1K
1-
#695000
1!
06
#695775
1M
#695938
1N
#697623
0W
1i
#697976
1O
#698375
0&!
#698382
0v
#698694
0'!
#698714
1*!
#698997
0x
#699300
0)!
#700000
0!
16
#700936
0M
#701081
0N
#701429
1L
1+
#701485
0A
0.
#701979
0K
0-
#705000
1!
06
#705775
1M
#705938
1N
#707623
1W
#707992
0O
#708132
1j
#708134
0_
#708262
1l
#708630
0*!
#708724
0h
#708732
1s
#708817
1m
#710000
0!
16
#710936
0M
#711081
0N
#711272
0L
0+
#711283
1=
1*
#715000
1!
06
#715775
1M
#715938
1N
#717623
0W
0i
1n
#717976
1O
#718009
0l
#718249
0j
#718355
1l
#718743
1w
#718885
0s
#719253
1x
#720000
0!
16
#720936
0M
#721081
0N
#721372
0=
0*
#721808
1A
1.
#725000
1!
06
#725775
1M
#725938
1N
#727623
1W
#727992
0O
#728132
1b
#728136
1_
#728457
1c
#728667
0w
#728902
0m
#729221
0x
#729312
1t
#730000
0!
16
#730936
0M
#731034
1E
1(
#731081
0N
#731709
0A
0.
#732154
1>
1,
#735000
1!
06
#735775
1M
#735938
1N
#737623
0W
0n
#737976
1O
#738089
0l
#738093
0b
#738223
0_
#738433
0c
#738725
1o
#739280
1s
#739295
0t
#740000
b1110 #
b1111 #
0!
16
#740699
1U
#740709
1S
#740936
0M
#740948
0E
0(
#741081
0N
#741831
1=
1*
#742082
0>
0,
#743903
0Y
#744224
0V
#744894
0p
#744895
0a
#745000
1!
06
#745340
0q
#745775
1M
#745938
1N
#750000
0!
16
#750936
0M
#751081
0N
#755000
1!
06
#755775
1M
#755938
1N
#760000
0!
16
#760936
0M
#761081
0N
#765000
1!
06
#765775
1M
#765938
1N
#770000
0!
16
#770936
0M
#771081
0N
#775000
1!
06
#775775
1M
#775938
1N
#780000
0!
16
#780936
0M
#781081
0N
#785000
1!
06
#785775
1M
#785938
1N
#790000
0!
16
#790936
0M
#791081
0N
#795000
1!
06
#795775
1M
#795938
1N
#800000
0!
16
#800936
0M
#801081
0N
#805000
1!
06
#805775
1M
#805938
1N
#810000
0!
16
#810936
0M
#811081
0N
#815000
1!
06
#815775
1M
#815938
1N
#820000
0!
16
#820936
0M
#821081
0N
