INF01058/LAB05/clock/simulation/qsim/clock.msim.vcd
$comment
	File created using the following command:
		vcd file clock.msim.vcd -direction
$end
$date
	Thu Dec 07 11:56:12 2023
$end
$version
	ModelSim Version 10.1d
$end
$timescale
	1ps
$end
$scope module clock_vlg_vec_tst $end
$var reg 1 ! clk $end
$var reg 1 " rst $end
$var wire 1 # Q $end
$var wire 1 $ sampler $end
$scope module i1 $end
$var wire 1 % gnd $end
$var wire 1 & vcc $end
$var wire 1 ' unknown $end
$var tri1 1 ( devclrn $end
$var tri1 1 ) devpor $end
$var tri1 1 * devoe $end
$var wire 1 + Q~output_o $end
$var wire 1 , clk~input_o $end
$var wire 1 - inst~0_combout $end
$var wire 1 . inst~feeder_combout $end
$var wire 1 / rst~input_o $end
$var wire 1 0 inst~q $end
$var wire 1 1 inst28~0_combout $end
$var wire 1 2 inst28~q $end
$var wire 1 3 inst29~0_combout $end
$var wire 1 4 inst29~feeder_combout $end
$var wire 1 5 inst29~q $end
$var wire 1 6 inst30~0_combout $end
$var wire 1 7 inst30~q $end
$var wire 1 8 inst31~0_combout $end
$var wire 1 9 inst31~feeder_combout $end
$var wire 1 : inst31~q $end
$var wire 1 ; inst32~0_combout $end
$var wire 1 < inst32~q $end
$var wire 1 = inst33~0_combout $end
$var wire 1 > inst33~feeder_combout $end
$var wire 1 ? inst33~q $end
$var wire 1 @ inst34~0_combout $end
$var wire 1 A inst34~feeder_combout $end
$var wire 1 B inst34~q $end
$var wire 1 C inst35~0_combout $end
$var wire 1 D inst35~feeder_combout $end
$var wire 1 E inst35~q $end
$var wire 1 F inst36~0_combout $end
$var wire 1 G inst36~q $end
$var wire 1 H inst37~0_combout $end
$var wire 1 I inst37~feeder_combout $end
$var wire 1 J inst37~q $end
$var wire 1 K inst38~0_combout $end
$var wire 1 L inst38~q $end
$var wire 1 M inst39~0_combout $end
$var wire 1 N inst39~feeder_combout $end
$var wire 1 O inst39~q $end
$var wire 1 P inst40~0_combout $end
$var wire 1 Q inst40~q $end
$var wire 1 R inst41~0_combout $end
$var wire 1 S inst41~feeder_combout $end
$var wire 1 T inst41~q $end
$var wire 1 U inst42~0_combout $end
$var wire 1 V inst42~q $end
$var wire 1 W inst43~0_combout $end
$var wire 1 X inst43~feeder_combout $end
$var wire 1 Y inst43~q $end
$var wire 1 Z inst44~0_combout $end
$var wire 1 [ inst44~q $end
$var wire 1 \ inst45~0_combout $end
$var wire 1 ] inst45~feeder_combout $end
$var wire 1 ^ inst45~q $end
$var wire 1 _ inst46~0_combout $end
$var wire 1 ` inst46~q $end
$var wire 1 a inst47~0_combout $end
$var wire 1 b inst47~feeder_combout $end
$var wire 1 c inst47~q $end
$var wire 1 d inst48~0_combout $end
$var wire 1 e inst48~feeder_combout $end
$var wire 1 f inst48~q $end
$var wire 1 g inst49~0_combout $end
$var wire 1 h inst49~feeder_combout $end
$var wire 1 i inst49~q $end
$var wire 1 j inst50~0_combout $end
$var wire 1 k inst50~q $end
$upscope $end
$upscope $end
$enddefinitions $end
#0
$dumpvars
0!
1"
x#
x$
0%
1&
x'
1(
1)
1*
x+
0,
x-
x.
1/
00
x1
02
x3
x4
05
x6
07
x8
x9
0:
x;
0<
x=
x>
0?
x@
xA
0B
xC
xD
0E
xF
0G
xH
xI
0J
xK
0L
xM
xN
0O
xP
0Q
xR
xS
0T
xU
0V
xW
xX
0Y
xZ
0[
x\
x]
0^
x_
0`
xa
xb
0c
xd
xe
0f
xg
xh
0i
1j
0k
$end
#552
1@
#554
1F
1P
#555
1_
#558
11
16
1U
#714
13
18
1W
#715
1=
1M
#717
1R
1a
#723
1d
#727
1Z
#728
1;
1K
#736
1\
#853
1g
#855
1H
#856
1C
#1109
1A
#1243
1-
#1270
1N
1>
1X
19
14
#1273
1b
1S
#1279
1e
#1291
1]
#1554
1h
#1556
1I
#1596
1D
#2369
1.
#3698
0+
0#
#5000
1!
0$
#5775
1,
#7231
10
#8231
12
#8426
0-
#8712
01
#9366
15
#9590
0.
#9995
03
#10000
0"
0!
1$
#10353
17
#10609
04
#10834
06
#10896
0/
#10936
0,
#11488
1:
#12117
08
#12475
1<
#12731
09
#13120
0;
#13614
1?
#14244
0=
#14601
1B
#14853
0>
#15000
1!
0$
#15091
0@
#15347
05
07
#15362
00
02
#15566
0:
0<
#15596
0?
0B
#15705
0A
#15775
1,
#15905
16
#15920
11
#16061
13
#16148
1@
#16280
18
#16294
1;
#16311
1=
#16605
1-
#16617
14
#16705
1A
#16836
19
#16866
1>
#17731
1.
#20000
0!
1$
#20936
0,
#25000
1!
0$
#25775
1,
#30000
1"
0!
1$
#30735
1/
#30936
0,
#35000
1!
0$
#35775
1,
#37231
10
#38231
12
#38426
0-
#38712
01
#39366
15
#39590
0.
#39995
03
#40000
0!
1$
#40353
17
#40609
04
#40834
06
#40936
0,
#41488
1:
#42117
08
#42475
1<
#42731
09
#43120
0;
#43614
1?
#44244
0=
#44601
1B
#44853
0>
#45000
1!
0$
#45091
0@
#45705
0A
#45775
1,
#46024
1E
#46814
0C
#47023
1G
#47231
00
#47500
0F
#47592
0D
#48424
1J
#48474
1-
#49214
0H
#49424
1L
#49600
1.
#49958
0I
#50000
0!
1$
#50068
0K
#50537
1O
#50936
0,
#51167
0M
#51524
1Q
#51776
0N
#52001
0P
#52662
1T
#53292
0R
#53649
1V
#53904
0S
#54130
0U
#54784
1Y
#55000
1!
0$
#55413
0W
#55771
1[
#55775
1,
#56027
0X
#56415
0Z
#57127
1^
#57231
10
#57791
0\
#58126
1`
#58231
02
#58399
0]
#58426
0-
#58604
0_
#58789
11
#59298
1c
#59590
0.
#59928
0a
#60000
0!
1$
#60286
1f
#60536
0b
#60928
0d
#60936
0,
#61542
0e
#61667
1i
#62456
0g
#62667
1k
#63036
0j
#63197
0h
#65000
1!
0$
#65775
1,
#66329
1+
1#
#67231
00
#68474
1-
#69600
1.
#70000
0!
1$
#70936
0,
#75000
1!
0$
#75775
1,
#77231
10
#78231
12
#78426
0-
#78712
01
#79366
05
#79590
0.
#80000
0!
1$
#80080
13
#80636
14
#80936
0,
#85000
1!
0$
#85775
1,
#87231
00
#88474
1-
#89600
1.
#90000
0!
1$
#90936
0,
#95000
1!
0$
#95775
1,
#97231
10
#98231
02
#98426
0-
#98789
11
#99590
0.
#100000
0!
1$
#100936
0,
#105000
1!
0$
#105775
1,
#107231
00
#108474
1-
#109600
1.
#110000
0!
1$
#110936
0,
#115000
1!
0$
#115775
1,
#117231
10
#118231
12
#118426
0-
#118712
01
#119366
15
#119590
0.
#119995
03
#120000
0!
1$
#120353
07
#120609
04
#120911
16
#120936
0,
#125000
1!
0$
#125775
1,
#127231
00
#128474
1-
#129600
1.
#130000
0!
1$
#130936
0,
#135000
1!
0$
#135775
1,
#137231
10
#138231
02
#138426
0-
#138789
11
#139590
0.
#140000
0!
1$
#140936
0,
#145000
1!
0$
#145775
1,
#147231
00
#148474
1-
#149600
1.
#150000
0!
1$
#150936
0,
#155000
1!
0$
#155775
1,
#157231
10
#158231
12
#158426
0-
#158712
01
#159366
05
#159590
0.
#160000
0!
1$
#160080
13
#160636
14
#160936
0,
#165000
1!
0$
#165775
1,
#167231
00
#168474
1-
#169600
1.
#170000
0!
1$
#170936
0,
#175000
1!
0$
#175775
1,
#177231
10
#178231
02
#178426
0-
#178789
11
#179590
0.
#180000
0!
1$
#180936
0,
#185000
1!
0$
#185775
1,
#187231
00
#188474
1-
#189600
1.
#190000
0!
1$
#190936
0,
#195000
1!
0$
#195775
1,
#197231
10
#198231
12
#198426
0-
#198712
01
#199366
15
#199590
0.
#199995
03
#200000
0!
1$
#200353
17
#200609
04
#200834
06
#200936
0,
#201488
0:
#202202
18
#202758
19
#205000
1!
0$
#205775
1,
#207231
00
#208474
1-
#209600
1.
#210000
0!
1$
#210936
0,
#215000
1!
0$
#215775
1,
#217231
10
#218231
02
#218426
0-
#218789
11
#219590
0.
#220000
0!
1$
#220936
0,
#225000
1!
0$
#225775
1,
#227231
00
#228474
1-
#229600
1.
#230000
0!
1$
#230936
0,
#235000
1!
0$
#235775
1,
#237231
10
#238231
12
#238426
0-
#238712
01
#239366
05
#239590
0.
#240000
0!
1$
#240080
13
#240636
14
#240936
0,
#245000
1!
0$
#245775
1,
#247231
00
#248474
1-
#249600
1.
#250000
0!
1$
#250936
0,
#255000
1!
0$
#255775
1,
#257231
10
#258231
02
#258426
0-
#258789
11
#259590
0.
#260000
0!
1$
#260936
0,
#265000
1!
0$
#265775
1,
#267231
00
#268474
1-
#269600
1.
#270000
0!
1$
#270936
0,
#275000
1!
0$
#275775
1,
#277231
10
#278231
12
#278426
0-
#278712
01
#279366
15
#279590
0.
#279995
03
#280000
0!
1$
#280353
07
#280609
04
#280911
16
#280936
0,
#285000
1!
0$
#285775
1,
#287231
00
#288474
1-
#289600
1.
#290000
0!
1$
#290936
0,
#295000
1!
0$
#295775
1,
#297231
10
#298231
02
#298426
0-
#298789
11
#299590
0.
#300000
0!
1$
#300936
0,
#305000
1!
0$
#305775
1,
#307231
00
#308474
1-
#309600
1.
#310000
0!
1$
#310936
0,
#315000
1!
0$
#315775
1,
#317231
10
#318231
12
#318426
0-
#318712
01
#319366
05
#319590
0.
#320000
0!
1$
#320080
13
#320636
14
#320936
0,
#325000
1!
0$
#325775
1,
#327231
00
#328474
1-
#329600
1.
#330000
0!
1$
#330936
0,
#335000
1!
0$
#335775
1,
#337231
10
#338231
02
#338426
0-
#338789
11
#339590
0.
#340000
0!
1$
#340936
0,
#345000
1!
0$
#345775
1,
#347231
00
#348474
1-
#349600
1.
#350000
0!
1$
#350936
0,
#355000
1!
0$
#355775
1,
#357231
10
#358231
12
#358426
0-
#358712
01
#359366
15
#359590
0.
#359995
03
#360000
0!
1$
#360353
17
#360609
04
#360834
06
#360936
0,
#361488
1:
#362117
08
#362475
0<
#362731
09
#363203
1;
#365000
1!
0$
#365775
1,
#367231
00
#368474
1-
#369600
1.
#370000
0!
1$
#370936
0,
#375000
1!
0$
#375775
1,
#377231
10
#378231
02
#378426
0-
#378789
11
#379590
0.
#380000
0!
1$
#380936
0,
#385000
1!
0$
#385775
1,
#387231
00
#388474
1-
#389600
1.
#390000
0!
1$
#390936
0,
#395000
1!
0$
#395775
1,
#397231
10
#398231
12
#398426
0-
#398712
01
#399366
05
#399590
0.
#400000
0!
1$
#400080
13
#400636
14
#400936
0,
#405000
1!
0$
#405775
1,
#407231
00
#408474
1-
#409600
1.
#410000
0!
1$
#410936
0,
#415000
1!
0$
#415775
1,
#417231
10
#418231
02
#418426
0-
#418789
11
#419590
0.
#420000
0!
1$
#420936
0,
#425000
1!
0$
#425775
1,
#427231
00
#428474
1-
#429600
1.
#430000
0!
1$
#430936
0,
#435000
1!
0$
#435775
1,
#437231
10
#438231
12
#438426
0-
#438712
01
#439366
15
#439590
0.
#439995
03
#440000
0!
1$
#440353
07
#440609
04
#440911
16
#440936
0,
#445000
1!
0$
#445775
1,
#447231
00
#448474
1-
#449600
1.
#450000
0!
1$
#450936
0,
#455000
1!
0$
#455775
1,
#457231
10
#458231
02
#458426
0-
#458789
11
#459590
0.
#460000
0!
1$
#460936
0,
#465000
1!
0$
#465775
1,
#467231
00
#468474
1-
#469600
1.
#470000
0!
1$
#470936
0,
#475000
1!
0$
#475775
1,
#477231
10
#478231
12
#478426
0-
#478712
01
#479366
05
#479590
0.
#480000
0!
1$
#480080
13
#480636
14
#480936
0,
#485000
1!
0$
#485775
1,
#487231
00
#488474
1-
#489600
1.
#490000
0!
1$
#490936
0,
#495000
1!
0$
#495775
1,
#497231
10
#498231
02
#498426
0-
#498789
11
#499590
0.
#500000
0!
1$
#500936
0,
#505000
1!
0$
#505775
1,
#507231
00
#508474
1-
#509600
1.
#510000
0!
1$
#510936
0,
#515000
1!
0$
#515775
1,
#517231
10
#518231
12
#518426
0-
#518712
01
#519366
15
#519590
0.
#519995
03
#520000
0!
1$
#520353
17
#520609
04
#520834
06
#520936
0,
#521488
0:
#522202
18
#522758
19
#525000
1!
0$
#525775
1,
#527231
00
#528474
1-
#529600
1.
#530000
0!
1$
#530936
0,
#535000
1!
0$
#535775
1,
#537231
10
#538231
02
#538426
0-
#538789
11
#539590
0.
#540000
0!
1$
#540936
0,
#545000
1!
0$
#545775
1,
#547231
00
#548474
1-
#549600
1.
#550000
0!
1$
#550936
0,
#555000
1!
0$
#555775
1,
#557231
10
#558231
12
#558426
0-
#558712
01
#559366
05
#559590
0.
#560000
0!
1$
#560080
13
#560636
14
#560936
0,
#565000
1!
0$
#565775
1,
#567231
00
#568474
1-
#569600
1.
#570000
0!
1$
#570936
0,
#575000
1!
0$
#575775
1,
#577231
10
#578231
02
#578426
0-
#578789
11
#579590
0.
#580000
0!
1$
#580936
0,
#585000
1!
0$
#585775
1,
#587231
00
#588474
1-
#589600
1.
#590000
0!
1$
#590936
0,
#595000
1!
0$
#595775
1,
#597231
10
#598231
12
#598426
0-
#598712
01
#599366
15
#599590
0.
#599995
03
#600000
0!
1$
#600353
07
#600609
04
#600911
16
#600936
0,
#605000
1!
0$
#605775
1,
#607231
00
#608474
1-
#609600
1.
#610000
0!
1$
#610936
0,
#615000
1!
0$
#615775
1,
#617231
10
#618231
02
#618426
0-
#618789
11
#619590
0.
#620000
0!
1$
#620936
0,
#625000
1!
0$
#625775
1,
#627231
00
#628474
1-
#629600
1.
#630000
0!
1$
#630936
0,
#635000
1!
0$
#635775
1,
#637231
10
#638231
12
#638426
0-
#638712
01
#639366
05
#639590
0.
#640000
0!
1$
#640080
13
#640636
14
#640936
0,
#645000
1!
0$
#645775
1,
#647231
00
#648474
1-
#649600
1.
#650000
0!
1$
#650936
0,
#655000
1!
0$
#655775
1,
#657231
10
#658231
02
#658426
0-
#658789
11
#659590
0.
#660000
0!
1$
#660936
0,
#665000
1!
0$
#665775
1,
#667231
00
#668474
1-
#669600
1.
#670000
0!
1$
#670936
0,
#675000
1!
0$
#675775
1,
#677231
10
#678231
12
#678426
0-
#678712
01
#679366
15
#679590
0.
#679995
03
#680000
0!
1$
#680353
17
#680609
04
#680834
06
#680936
0,
#681488
1:
#682117
08
#682475
1<
#682731
09
#683120
0;
#683614
0?
#684329
1=
#684884
1>
#685000
1!
0$
#685775
1,
#687231
00
#688474
1-
#689600
1.
#690000
0!
1$
#690936
0,
#695000
1!
0$
#695775
1,
#697231
10
#698231
02
#698426
0-
#698789
11
#699590
0.
#700000
0!
1$
#700936
0,
#705000
1!
0$
#705775
1,
#707231
00
#708474
1-
#709600
1.
#710000
0!
1$
#710936
0,
#715000
1!
0$
#715775
1,
#717231
10
#718231
12
#718426
0-
#718712
01
#719366
05
#719590
0.
#720000
0!
1$
#720080
13
#720636
14
#720936
0,
#725000
1!
0$
#725775
1,
#727231
00
#728474
1-
#729600
1.
#730000
0!
1$
#730936
0,
#735000
1!
0$
#735775
1,
#737231
10
#738231
02
#738426
0-
#738789
11
#739590
0.
#740000
0!
1$
#740936
0,
#745000
1!
0$
#745775
1,
#747231
00
#748474
1-
#749600
1.
#750000
0!
1$
#750936
0,
#755000
1!
0$
#755775
1,
#757231
10
#758231
12
#758426
0-
#758712
01
#759366
15
#759590
0.
#759995
03
#760000
0!
1$
#760353
07
#760609
04
#760911
16
#760936
0,
#765000
1!
0$
#765775
1,
#767231
00
#768474
1-
#769600
1.
#770000
0!
1$
#770936
0,
#775000
1!
0$
#775775
1,
#777231
10
#778231
02
#778426
0-
#778789
11
#779590
0.
#780000
0!
1$
#780936
0,
#785000
1!
0$
#785775
1,
#787231
00
#788474
1-
#789600
1.
#790000
0!
1$
#790936
0,
#795000
1!
0$
#795775
1,
#797231
10
#798231
12
#798426
0-
#798712
01
#799366
05
#799590
0.
#800000
0!
1$
#800080
13
#800636
14
#800936
0,
#805000
1!
0$
#805775
1,
#807231
00
#808474
1-
#809600
1.
#810000
0!
1$
#810936
0,
#815000
1!
0$
#815775
1,
#817231
10
#818231
02
#818426
0-
#818789
11
#819590
0.
#820000
0!
1$
#820936
0,
#825000
1!
0$
#825775
1,
#827231
00
#828474
1-
#829600
1.
#830000
0!
1$
#830936
0,
#835000
1!
0$
#835775
1,
#837231
10
#838231
12
#838426
0-
#838712
01
#839366
15
#839590
0.
#839995
03
#840000
0!
1$
#840353
17
#840609
04
#840834
06
#840936
0,
#841488
0:
#842202
18
#842758
19
#845000
1!
0$
#845775
1,
#847231
00
#848474
1-
#849600
1.
#850000
0!
1$
#850936
0,
#855000
1!
0$
#855775
1,
#857231
10
#858231
02
#858426
0-
#858789
11
#859590
0.
#860000
0!
1$
#860936
0,
#865000
1!
0$
#865775
1,
#867231
00
#868474
1-
#869600
1.
#870000
0!
1$
#870936
0,
#875000
1!
0$
#875775
1,
#877231
10
#878231
12
#878426
0-
#878712
01
#879366
05
#879590
0.
#880000
0!
1$
#880080
13
#880636
14
#880936
0,
#885000
1!
0$
#885775
1,
#887231
00
#888474
1-
#889600
1.
#890000
0!
1$
#890936
0,
#895000
1!
0$
#895775
1,
#897231
10
#898231
02
#898426
0-
#898789
11
#899590
0.
#900000
0!
1$
#900936
0,
#905000
1!
0$
#905775
1,
#907231
00
#908474
1-
#909600
1.
#910000
0!
1$
#910936
0,
#915000
1!
0$
#915775
1,
#917231
10
#918231
12
#918426
0-
#918712
01
#919366
15
#919590
0.
#919995
03
#920000
0!
1$
#920353
07
#920609
04
#920911
16
#920936
0,
#925000
1!
0$
#925775
1,
#927231
00
#928474
1-
#929600
1.
#930000
0!
1$
#930936
0,
#935000
1!
0$
#935775
1,
#937231
10
#938231
02
#938426
0-
#938789
11
#939590
0.
#940000
0!
1$
#940936
0,
#945000
1!
0$
#945775
1,
#947231
00
#948474
1-
#949600
1.
#950000
0!
1$
#950936
0,
#955000
1!
0$
#955775
1,
#957231
10
#958231
12
#958426
0-
#958712
01
#959366
05
#959590
0.
#960000
0!
1$
#960080
13
#960636
14
#960936
0,
#965000
1!
0$
#965775
1,
#967231
00
#968474
1-
#969600
1.
#970000
0!
1$
#970936
0,
#975000
1!
0$
#975775
1,
#977231
10
#978231
02
#978426
0-
#978789
11
#979590
0.
#980000
0!
1$
#980936
0,
#985000
1!
0$
#985775
1,
#987231
00
#988474
1-
#989600
1.
#990000
0!
1$
#990936
0,
#995000
1!
0$
#995775
1,
#997231
10
#998231
12
#998426
0-
#998712
01
#999366
15
#999590
0.
#999995
03
