INF01058/LAB08/fsm/simulation/qsim/fsm.msim.vcd
$comment
	File created using the following command:
		vcd file fsm.msim.vcd -direction
$end
$date
	Fri Jan 12 17:27:05 2024
$end
$version
	ModelSim Version 10.1d
$end
$timescale
	1ps
$end
$scope module fsm_vlg_vec_tst $end
$var reg 1 ! clk $end
$var reg 1 " rst $end
$var wire 1 # green $end
$var wire 1 $ red $end
$var wire 1 % yellow $end
$var wire 1 & sampler $end
$scope module i1 $end
$var wire 1 ' gnd $end
$var wire 1 ( vcc $end
$var wire 1 ) unknown $end
$var tri1 1 * devclrn $end
$var tri1 1 + devpor $end
$var tri1 1 , devoe $end
$var wire 1 - green~output_o $end
$var wire 1 . yellow~output_o $end
$var wire 1 / red~output_o $end
$var wire 1 0 clk~input_o $end
$var wire 1 1 clk~inputclkctrl_outclk $end
$var wire 1 2 inst3|inst6|inst2~0_combout $end
$var wire 1 3 rst~input_o $end
$var wire 1 4 rst~inputclkctrl_outclk $end
$var wire 1 5 inst3|inst2~q $end
$var wire 1 6 inst3|inst18~combout $end
$var wire 1 7 inst3|inst10|inst2~0_combout $end
$var wire 1 8 inst3|inst3~q $end
$var wire 1 9 inst|inst~0_combout $end
$var wire 1 : inst|inst~1_combout $end
$var wire 1 ; inst|inst~q $end
$var wire 1 < inst3|inst1|inst2~combout $end
$var wire 1 = inst3|inst~q $end
$var wire 1 > inst|inst2~0_combout $end
$var wire 1 ? inst|inst2~1_combout $end
$var wire 1 @ inst|inst2~q $end
$var wire 1 A inst15~0_combout $end
$var wire 1 B inst15~1_combout $end
$upscope $end
$upscope $end
$enddefinitions $end
#0
$dumpvars
1!
1"
x#
x$
x%
x&
0'
1(
x)
1*
1+
1,
x-
x.
x/
10
x1
x2
13
x4
05
x6
x7
08
x9
x:
0;
x<
0=
x>
x?
0@
xA
xB
$end
#163
14
11
#434
09
#565
06
#570
02
#592
0B
#608
1<
#735
0>
#859
0?
#886
07
#914
0:
#931
0A
#2663
1/
1$
#3133
0.
0%
#3461
0-
0#
#10000
0!
0&
#10936
00
#11081
01
#20000
1!
1&
#20775
10
#20938
11
#22617
1=
#22986
0<
#23133
12
#30000
0!
0&
#30936
00
#31081
01
#40000
1!
1&
#40775
10
#40938
11
#42617
15
0=
#42970
1<
#42986
02
#43197
12
#50000
0!
0&
#50936
00
#51081
01
#60000
1!
1&
#60775
10
#60938
11
#62617
1=
#62986
0<
#63104
16
#63123
02
#63409
17
#70000
0!
0&
#70936
00
#71081
01
#80000
1!
1&
#80775
10
#80938
11
#82617
05
18
0=
#82970
1<
12
#83187
02
#90000
0!
0&
#90936
00
#91081
01
#100000
1!
1&
#100775
10
#100938
11
#102617
1=
#102986
0<
#103133
12
#110000
0!
0&
#110936
00
#111081
01
#120000
1!
1&
#120775
10
#120938
11
#122617
15
0=
#122970
1<
#122986
02
#123197
12
#123206
1>
#130000
0!
0&
#130936
00
#131081
01
#140000
1!
1&
#140775
10
#140938
11
#142617
1=
#142986
0<
#143102
06
#143123
02
#143198
19
#143387
1?
#143423
07
#150000
0!
0&
#150936
00
#151081
01
#160000
1!
1&
#160775
10
#160938
11
#162617
05
08
0=
1@
#162970
1<
12
#163051
09
#163187
02
#163443
1A
#165250
0/
0$
#165981
1-
1#
#170000
0!
0&
#170936
00
#171081
01
#180000
1!
1&
#180775
10
#180938
11
#182617
1=
#182986
0<
#183133
12
#190000
0!
0&
#190936
00
#191081
01
#200000
1!
1&
#200775
10
#200938
11
#202617
15
0=
#202970
1<
#202986
02
#203197
12
#210000
0!
0&
#210936
00
#211081
01
#220000
1!
1&
#220775
10
#220938
11
#222617
1=
#222986
0<
#223104
16
#223123
02
#223409
17
#230000
0!
0&
#230936
00
#231081
01
#240000
1!
1&
#240775
10
#240938
11
#242617
05
18
0=
#242970
1<
12
#243187
02
#250000
0!
0&
#250936
00
#251081
01
#260000
1!
1&
#260775
10
#260938
11
#262617
1=
#262986
0<
#263133
12
#270000
0!
0&
#270936
00
#271081
01
#280000
1!
1&
#280775
10
#280938
11
#282617
15
0=
#282970
1<
#282986
02
#283197
12
#290000
0!
0&
#290936
00
#291081
01
#300000
1!
1&
#300775
10
#300938
11
#302617
1=
#302986
0<
#303102
06
#303123
02
#303198
19
#303423
07
#303502
1:
#310000
0!
0&
#310936
00
#311081
01
#320000
1!
1&
#320775
10
#320938
11
#322617
05
08
1;
0=
#322970
1<
12
#323051
09
#323148
0A
#323157
1B
#323187
02
#323319
0>
#325678
0-
0#
#325706
1.
1%
#330000
0!
0&
#330936
00
#331081
01
#340000
1!
1&
#340775
10
#340938
11
#342617
1=
#342986
0<
#343133
12
#343399
0?
#350000
0!
0&
#350936
00
#351081
01
#360000
1!
1&
#360775
10
#360938
11
#362617
15
0=
0@
#362970
1<
#362986
02
#363485
0<
#363490
0B
#363531
0:
#365280
1/
1$
#366031
0.
0%
#370000
0!
0&
#370936
00
#371081
01
#380000
1!
1&
#380775
10
#380938
11
#382617
05
0;
#383225
1<
#390000
0!
0&
#390936
00
#391081
01
#400000
1!
1&
#400775
10
#400938
11
#402617
1=
#402986
0<
#403133
12
#410000
0!
0&
#410936
00
#411081
01
#420000
1!
1&
#420775
10
#420938
11
#422617
15
0=
#422970
1<
#422986
02
#423197
12
#430000
0!
0&
#430936
00
#431081
01
#440000
1!
1&
#440775
10
#440938
11
#442617
1=
#442986
0<
#443104
16
#443123
02
#443409
17
#450000
0!
0&
#450936
00
#451081
01
#460000
1!
1&
#460775
10
#460938
11
#462617
05
18
0=
#462970
1<
12
#463187
02
#470000
0!
0&
#470936
00
#471081
01
#480000
1!
1&
#480775
10
#480938
11
#482617
1=
#482986
0<
#483133
12
#490000
0!
0&
#490936
00
#491081
01
#500000
1!
1&
#500775
10
#500938
11
#502617
15
0=
#502970
1<
#502986
02
#503197
12
#503206
1>
#510000
0!
0&
#510936
00
#511081
01
#520000
1!
1&
#520775
10
#520938
11
#522617
1=
#522986
0<
#523102
06
#523123
02
#523198
19
#523387
1?
#523423
07
#530000
0!
0&
#530936
00
#531081
01
#540000
1!
1&
#540775
10
#540938
11
#542617
05
08
0=
1@
#542970
1<
12
#543051
09
#543187
02
#543443
1A
#545250
0/
0$
#545981
1-
1#
#550000
0!
0&
#550936
00
#551081
01
#560000
1!
1&
#560775
10
#560938
11
#562617
1=
#562986
0<
#563133
12
#570000
0!
0&
#570936
00
#571081
01
#580000
1!
1&
#580775
10
#580938
11
#582617
15
0=
#582970
1<
#582986
02
#583197
12
#590000
0!
0&
#590936
00
#591081
01
#600000
1!
1&
#600775
10
#600938
11
#602617
1=
#602986
0<
#603104
16
#603123
02
#603409
17
#610000
0!
0&
#610936
00
#611081
01
#620000
1!
1&
#620775
10
#620938
11
#622617
05
18
0=
#622970
1<
12
#623187
02
#630000
0!
0&
#630936
00
#631081
01
#640000
1!
1&
#640775
10
#640938
11
#642617
1=
#642986
0<
#643133
12
#650000
0!
0&
#650936
00
#651081
01
#660000
1!
1&
#660775
10
#660938
11
#662617
15
0=
#662970
1<
#662986
02
#663197
12
#670000
0!
0&
#670936
00
#671081
01
#680000
1!
1&
#680775
10
#680938
11
#682617
1=
#682986
0<
#683102
06
#683123
02
#683198
19
#683423
07
#683502
1:
#690000
0!
0&
#690936
00
#691081
01
#700000
1!
1&
#700775
10
#700938
11
#702617
05
08
1;
0=
#702970
1<
12
#703051
09
#703148
0A
#703157
1B
#703187
02
#703319
0>
#705678
0-
0#
#705706
1.
1%
#710000
0!
0&
#710936
00
#711081
01
#720000
1!
1&
#720775
10
#720938
11
#722617
1=
#722986
0<
#723133
12
#723399
0?
#730000
0!
0&
#730936
00
#731081
01
#740000
1!
1&
#740775
10
#740938
11
#742617
15
0=
0@
#742970
1<
#742986
02
#743485
0<
#743490
0B
#743531
0:
#745280
1/
1$
#746031
0.
0%
#750000
0!
0&
#750936
00
#751081
01
#760000
1!
1&
#760775
10
#760938
11
#762617
05
0;
#763225
1<
#770000
0!
0&
#770936
00
#771081
01
#780000
1!
1&
#780775
10
#780938
11
#782617
1=
#782986
0<
#783133
12
#790000
0!
0&
#790936
00
#791081
01
#800000
1!
1&
#800775
10
#800938
11
#802617
15
0=
#802970
1<
#802986
02
#803197
12
#810000
0!
0&
#810936
00
#811081
01
#820000
1!
1&
#820775
10
#820938
11
#822617
1=
#822986
0<
#823104
16
#823123
02
#823409
17
#830000
0!
0&
#830936
00
#831081
01
#840000
1!
1&
#840775
10
#840938
11
#842617
05
18
0=
#842970
1<
12
#843187
02
#850000
0!
0&
#850936
00
#851081
01
#860000
1!
1&
#860775
10
#860938
11
#862617
1=
#862986
0<
#863133
12
#870000
0!
0&
#870936
00
#871081
01
#880000
1!
1&
#880775
10
#880938
11
#882617
15
0=
#882970
1<
#882986
02
#883197
12
#883206
1>
#890000
0!
0&
#890936
00
#891081
01
#900000
1!
1&
#900775
10
#900938
11
#902617
1=
#902986
0<
#903102
06
#903123
02
#903198
19
#903387
1?
#903423
07
#910000
0!
0&
#910936
00
#911081
01
#920000
1!
1&
#920775
10
#920938
11
#922617
05
08
0=
1@
#922970
1<
12
#923051
09
#923187
02
#923443
1A
#925250
0/
0$
#925981
1-
1#
#930000
0!
0&
#930936
00
#931081
01
#940000
1!
1&
#940775
10
#940938
11
#942617
1=
#942986
0<
#943133
12
#950000
0!
0&
#950936
00
#951081
01
#960000
1!
1&
#960775
10
#960938
11
#962617
15
0=
#962970
1<
#962986
02
#963197
12
#970000
0!
0&
#970936
00
#971081
01
#980000
1!
1&
#980775
10
#980938
11
#982617
1=
#982986
0<
#983104
16
#983123
02
#983409
17
#990000
0!
0&
#990936
00
